-- Merging decision tree log ---
manifest
ADDED from /Users/rullylukman/react-native/firebasenotif1/android/app/src/main/AndroidManifest.xml:1:1-60:12
INJECTED from /Users/rullylukman/react-native/firebasenotif1/android/app/src/main/AndroidManifest.xml:1:1-60:12
INJECTED from /Users/rullylukman/react-native/firebasenotif1/android/app/src/main/AndroidManifest.xml:1:1-60:12
INJECTED from /Users/rullylukman/react-native/firebasenotif1/android/app/src/main/AndroidManifest.xml:1:1-60:12
MERGED from /Users/rullylukman/react-native/firebasenotif1/android/app/src/main/AndroidManifest.xml:1:1-60:12
MERGED from [:react-native-firebase] /Users/rullylukman/react-native/firebasenotif1/node_modules/react-native-firebase/android/build/intermediates/library_manifest/debug/AndroidManifest.xml:2:1-23:12
MERGED from [com.facebook.react:react-native:0.59.0] /Users/rullylukman/.gradle/caches/transforms-1/files-1.1/react-native-0.59.0.aar/77174908666829a635b3925c1d21e997/AndroidManifest.xml:2:1-13:12
MERGED from [com.android.support:appcompat-v7:28.0.0] /Users/rullylukman/.gradle/caches/transforms-1/files-1.1/appcompat-v7-28.0.0.aar/b96b3c957d8945b7cf45d03f4091c313/AndroidManifest.xml:17:1-22:12
MERGED from [com.google.firebase:firebase-messaging:17.5.0] /Users/rullylukman/.gradle/caches/transforms-1/files-1.1/firebase-messaging-17.5.0.aar/c2d62b0c4a05663b4325c03b82e6dfb1/AndroidManifest.xml:17:1-37:12
MERGED from [com.google.firebase:firebase-core:16.0.8] /Users/rullylukman/.gradle/caches/transforms-1/files-1.1/firebase-core-16.0.8.aar/10d5651ae16daada94a3caf41d992a12/AndroidManifest.xml:2:1-9:12
MERGED from [com.google.firebase:firebase-analytics:16.4.0] /Users/rullylukman/.gradle/caches/transforms-1/files-1.1/firebase-analytics-16.4.0.aar/a27ddc3b16b78c4e4d7f54847d69361a/AndroidManifest.xml:2:1-9:12
MERGED from [com.google.android.gms:play-services-measurement-api:16.4.0] /Users/rullylukman/.gradle/caches/transforms-1/files-1.1/play-services-measurement-api-16.4.0.aar/a8fbbbdd8033bb0277042705133b245e/AndroidManifest.xml:17:1-36:12
MERGED from [com.google.firebase:firebase-iid:17.1.1] /Users/rullylukman/.gradle/caches/transforms-1/files-1.1/firebase-iid-17.1.1.aar/fd357df0b54ab6590b79886a1e225b11/AndroidManifest.xml:17:1-59:12
MERGED from [com.google.firebase:firebase-iid-interop:16.0.1] /Users/rullylukman/.gradle/caches/transforms-1/files-1.1/firebase-iid-interop-16.0.1.aar/1b751481bd5bdf88e1ba117160f28579/AndroidManifest.xml:2:1-10:12
MERGED from [com.google.android.gms:play-services-base:16.1.0] /Users/rullylukman/.gradle/caches/transforms-1/files-1.1/play-services-base-16.1.0.aar/60ed1822ebb867f4d078fe99163877dd/AndroidManifest.xml:17:1-29:12
MERGED from [com.google.firebase:firebase-common:16.1.0] /Users/rullylukman/.gradle/caches/transforms-1/files-1.1/firebase-common-16.1.0.aar/ce99a6f01f7898065696782643932d25/AndroidManifest.xml:2:1-19:12
MERGED from [com.google.android.gms:play-services-tasks:16.0.1] /Users/rullylukman/.gradle/caches/transforms-1/files-1.1/play-services-tasks-16.0.1.aar/5a8944cd8a9e6f0f894964934250a29b/AndroidManifest.xml:2:1-9:12
MERGED from [com.google.firebase:firebase-measurement-connector:17.0.1] /Users/rullylukman/.gradle/caches/transforms-1/files-1.1/firebase-measurement-connector-17.0.1.aar/e11f13e5ef848985299e7124f48b3ea1/AndroidManifest.xml:17:1-25:12
MERGED from [com.google.android.gms:play-services-measurement:16.4.0] /Users/rullylukman/.gradle/caches/transforms-1/files-1.1/play-services-measurement-16.4.0.aar/987426cc656aed1c31a7c24dbf845795/AndroidManifest.xml:17:1-55:12
MERGED from [com.google.android.gms:play-services-measurement-sdk:16.4.0] /Users/rullylukman/.gradle/caches/transforms-1/files-1.1/play-services-measurement-sdk-16.4.0.aar/5262050ddde7874f2db892338b34e3bc/AndroidManifest.xml:17:1-25:12
MERGED from [com.google.android.gms:play-services-measurement-impl:16.4.0] /Users/rullylukman/.gradle/caches/transforms-1/files-1.1/play-services-measurement-impl-16.4.0.aar/6a8697d9dfb948cde5c2c89c0a8cb591/AndroidManifest.xml:17:1-40:12
MERGED from [com.google.android.gms:play-services-stats:16.0.1] /Users/rullylukman/.gradle/caches/transforms-1/files-1.1/play-services-stats-16.0.1.aar/b65a99834f991aac1e5481e08b90a580/AndroidManifest.xml:2:1-9:12
MERGED from [com.google.android.gms:play-services-measurement-sdk-api:16.4.0] /Users/rullylukman/.gradle/caches/transforms-1/files-1.1/play-services-measurement-sdk-api-16.4.0.aar/3ce0e49edecf0be61e6506d820bc3eff/AndroidManifest.xml:17:1-30:12
MERGED from [com.google.android.gms:play-services-measurement-base:16.4.0] /Users/rullylukman/.gradle/caches/transforms-1/files-1.1/play-services-measurement-base-16.4.0.aar/2a95d9e49d5ecfc4d77d943b6284e079/AndroidManifest.xml:2:1-9:12
MERGED from [com.google.android.gms:play-services-ads-identifier:16.0.0] /Users/rullylukman/.gradle/caches/transforms-1/files-1.1/play-services-ads-identifier-16.0.0.aar/abcf34404cfb0ae86c9339f8d091509f/AndroidManifest.xml:17:1-24:12
MERGED from [com.google.android.gms:play-services-basement:16.2.0] /Users/rullylukman/.gradle/caches/transforms-1/files-1.1/play-services-basement-16.2.0.aar/7eef0fc78f797144dfbc1b4ef40ba6b8/AndroidManifest.xml:17:1-28:12
MERGED from [com.android.support:support-v4:28.0.0] /Users/rullylukman/.gradle/caches/transforms-1/files-1.1/support-v4-28.0.0.aar/b1e9b62f4cdccfd4e57f6dbbe271a8ad/AndroidManifest.xml:17:1-22:12
MERGED from [com.android.support:multidex:1.0.2] /Users/rullylukman/.gradle/caches/transforms-1/files-1.1/multidex-1.0.2.aar/2b6f23387e9ddc45999b9b9135be8c0d/AndroidManifest.xml:17:1-22:12
MERGED from [com.android.support:support-fragment:28.0.0] /Users/rullylukman/.gradle/caches/transforms-1/files-1.1/support-fragment-28.0.0.aar/24d7a3305dec31cf8384f0a862855d33/AndroidManifest.xml:17:1-22:12
MERGED from [com.android.support:animated-vector-drawable:28.0.0] /Users/rullylukman/.gradle/caches/transforms-1/files-1.1/animated-vector-drawable-28.0.0.aar/064c0f2643383a04d3df36849ad6d9e1/AndroidManifest.xml:17:1-22:12
MERGED from [com.android.support:support-core-ui:28.0.0] /Users/rullylukman/.gradle/caches/transforms-1/files-1.1/support-core-ui-28.0.0.aar/d2d7eca7b22dc2ff305b683a34d00bbb/AndroidManifest.xml:17:1-22:12
MERGED from [com.android.support:support-core-utils:28.0.0] /Users/rullylukman/.gradle/caches/transforms-1/files-1.1/support-core-utils-28.0.0.aar/b3e1f2ec3f450477baa36058cc7fc42b/AndroidManifest.xml:17:1-22:12
MERGED from [com.android.support:support-vector-drawable:28.0.0] /Users/rullylukman/.gradle/caches/transforms-1/files-1.1/support-vector-drawable-28.0.0.aar/4013e8e8144d264f5e8a298dea8b6484/AndroidManifest.xml:17:1-22:12
MERGED from [com.android.support:support-media-compat:28.0.0] /Users/rullylukman/.gradle/caches/transforms-1/files-1.1/support-media-compat-28.0.0.aar/85b6d730706f38811a52483126737033/AndroidManifest.xml:17:1-22:12
MERGED from [com.android.support:loader:28.0.0] /Users/rullylukman/.gradle/caches/transforms-1/files-1.1/loader-28.0.0.aar/4be8a070d93b8a05493a90ee530ea3cb/AndroidManifest.xml:17:1-22:12
MERGED from [com.android.support:viewpager:28.0.0] /Users/rullylukman/.gradle/caches/transforms-1/files-1.1/viewpager-28.0.0.aar/04149553624dbbea61a5d0ca7d42656e/AndroidManifest.xml:17:1-22:12
MERGED from [com.android.support:coordinatorlayout:28.0.0] /Users/rullylukman/.gradle/caches/transforms-1/files-1.1/coordinatorlayout-28.0.0.aar/fd0e744f4700babedb23ee81a9dac82b/AndroidManifest.xml:17:1-22:12
MERGED from [com.android.support:drawerlayout:28.0.0] /Users/rullylukman/.gradle/caches/transforms-1/files-1.1/drawerlayout-28.0.0.aar/6657f535d75205c663c8fa5000614a1d/AndroidManifest.xml:17:1-22:12
MERGED from [com.android.support:slidingpanelayout:28.0.0] /Users/rullylukman/.gradle/caches/transforms-1/files-1.1/slidingpanelayout-28.0.0.aar/80bd4677bae273113574c2a2d51a6c07/AndroidManifest.xml:17:1-22:12
MERGED from [com.android.support:customview:28.0.0] /Users/rullylukman/.gradle/caches/transforms-1/files-1.1/customview-28.0.0.aar/0ad381553eca72309ad8cc2fb25e663c/AndroidManifest.xml:17:1-22:12
MERGED from [com.android.support:swiperefreshlayout:28.0.0] /Users/rullylukman/.gradle/caches/transforms-1/files-1.1/swiperefreshlayout-28.0.0.aar/24a3739b96c7d60642c059b8559635e1/AndroidManifest.xml:17:1-22:12
MERGED from [com.android.support:asynclayoutinflater:28.0.0] /Users/rullylukman/.gradle/caches/transforms-1/files-1.1/asynclayoutinflater-28.0.0.aar/b7e764ac83d4e367637fa382cd8af060/AndroidManifest.xml:17:1-22:12
MERGED from [com.android.support:support-compat:28.0.0] /Users/rullylukman/.gradle/caches/transforms-1/files-1.1/support-compat-28.0.0.aar/ab65750ff7ada745641bb31faf1f9729/AndroidManifest.xml:17:1-24:12
MERGED from [com.android.support:versionedparcelable:28.0.0] /Users/rullylukman/.gradle/caches/transforms-1/files-1.1/versionedparcelable-28.0.0.aar/f281e07a6c935f3147b3593f46170bc7/AndroidManifest.xml:17:1-25:12
MERGED from [com.android.support:cursoradapter:28.0.0] /Users/rullylukman/.gradle/caches/transforms-1/files-1.1/cursoradapter-28.0.0.aar/ce1019d50135bfb1c56196d470e68486/AndroidManifest.xml:17:1-22:12
MERGED from [android.arch.lifecycle:runtime:1.1.1] /Users/rullylukman/.gradle/caches/transforms-1/files-1.1/runtime-1.1.1.aar/7155f6e653c7c565b38e570002f65dcc/AndroidManifest.xml:17:1-22:12
MERGED from [com.android.support:documentfile:28.0.0] /Users/rullylukman/.gradle/caches/transforms-1/files-1.1/documentfile-28.0.0.aar/f85cac31ce2d5d7de572f37d930edc73/AndroidManifest.xml:17:1-22:12
MERGED from [com.android.support:localbroadcastmanager:28.0.0] /Users/rullylukman/.gradle/caches/transforms-1/files-1.1/localbroadcastmanager-28.0.0.aar/562aa31acdbda8a3e1be8ad31d6106e4/AndroidManifest.xml:17:1-22:12
MERGED from [com.android.support:print:28.0.0] /Users/rullylukman/.gradle/caches/transforms-1/files-1.1/print-28.0.0.aar/3a1a7e92c362af28e6e7e43416ce2559/AndroidManifest.xml:17:1-22:12
MERGED from [android.arch.lifecycle:viewmodel:1.1.1] /Users/rullylukman/.gradle/caches/transforms-1/files-1.1/viewmodel-1.1.1.aar/bfd1173b3cb86390aefa5bfe4891fac2/AndroidManifest.xml:17:1-22:12
MERGED from [com.android.support:interpolator:28.0.0] /Users/rullylukman/.gradle/caches/transforms-1/files-1.1/interpolator-28.0.0.aar/e3ceee76579b365789cdca8e4b95db18/AndroidManifest.xml:17:1-22:12
MERGED from [android.arch.lifecycle:livedata:1.1.1] /Users/rullylukman/.gradle/caches/transforms-1/files-1.1/livedata-1.1.1.aar/6c463e5f47aa33e73991c488d51284ae/AndroidManifest.xml:17:1-22:12
MERGED from [android.arch.lifecycle:livedata-core:1.1.1] /Users/rullylukman/.gradle/caches/transforms-1/files-1.1/livedata-core-1.1.1.aar/36e40bf117d890d2f5d79ce4d5881f8e/AndroidManifest.xml:17:1-22:12
MERGED from [android.arch.core:runtime:1.1.1] /Users/rullylukman/.gradle/caches/transforms-1/files-1.1/runtime-1.1.1.aar/0c619a4abd9e1534c3ab4ab089eebec1/AndroidManifest.xml:17:1-22:12
MERGED from [com.facebook.fresco:fresco:1.10.0] /Users/rullylukman/.gradle/caches/transforms-1/files-1.1/fresco-1.10.0.aar/a3e28c388eda31fe2a35bdcddd3fc5ce/AndroidManifest.xml:2:1-9:12
MERGED from [com.facebook.fresco:imagepipeline-okhttp3:1.10.0] /Users/rullylukman/.gradle/caches/transforms-1/files-1.1/imagepipeline-okhttp3-1.10.0.aar/ea4f6becc6333422bef8bd35bf081696/AndroidManifest.xml:2:1-9:12
MERGED from [com.facebook.fresco:drawee:1.10.0] /Users/rullylukman/.gradle/caches/transforms-1/files-1.1/drawee-1.10.0.aar/ae660fc23ace4b10c6930b77764d02b4/AndroidManifest.xml:2:1-9:12
MERGED from [com.facebook.fresco:imagepipeline:1.10.0] /Users/rullylukman/.gradle/caches/transforms-1/files-1.1/imagepipeline-1.10.0.aar/30a8416a6200d4adf4f04a9ff8705d28/AndroidManifest.xml:2:1-9:12
MERGED from [com.facebook.fresco:imagepipeline-base:1.10.0] /Users/rullylukman/.gradle/caches/transforms-1/files-1.1/imagepipeline-base-1.10.0.aar/ab0f60ec7eca9b4bf051acea1823ac55/AndroidManifest.xml:2:1-9:12
MERGED from [com.facebook.soloader:soloader:0.6.0] /Users/rullylukman/.gradle/caches/transforms-1/files-1.1/soloader-0.6.0.aar/a401eead49af514ebfec385604d01d00/AndroidManifest.xml:2:1-13:12
MERGED from [com.facebook.fresco:fbcore:1.10.0] /Users/rullylukman/.gradle/caches/transforms-1/files-1.1/fbcore-1.10.0.aar/76d6794dcf1fb34d4a7c4cd2484bdfc5/AndroidManifest.xml:2:1-9:12
INJECTED from /Users/rullylukman/react-native/firebasenotif1/android/app/src/debug/AndroidManifest.xml:2:1-8:12
INJECTED from /Users/rullylukman/react-native/firebasenotif1/android/app/src/debug/AndroidManifest.xml:2:1-8:12
INJECTED from /Users/rullylukman/react-native/firebasenotif1/android/app/src/debug/AndroidManifest.xml:2:1-8:12
	package
		ADDED from /Users/rullylukman/react-native/firebasenotif1/android/app/src/main/AndroidManifest.xml:3:3-31
		INJECTED from /Users/rullylukman/react-native/firebasenotif1/android/app/src/main/AndroidManifest.xml
		ADDED from /Users/rullylukman/react-native/firebasenotif1/android/app/src/main/AndroidManifest.xml:3:3-31
		INJECTED from /Users/rullylukman/react-native/firebasenotif1/android/app/src/debug/AndroidManifest.xml
	android:versionName
		INJECTED from /Users/rullylukman/react-native/firebasenotif1/android/app/src/main/AndroidManifest.xml
		ADDED from /Users/rullylukman/react-native/firebasenotif1/android/app/src/main/AndroidManifest.xml:1:1-60:12
		INJECTED from /Users/rullylukman/react-native/firebasenotif1/android/app/src/debug/AndroidManifest.xml
	xmlns:tools
		ADDED from /Users/rullylukman/react-native/firebasenotif1/android/app/src/main/AndroidManifest.xml:2:1-47
	android:versionCode
		INJECTED from /Users/rullylukman/react-native/firebasenotif1/android/app/src/main/AndroidManifest.xml
		ADDED from /Users/rullylukman/react-native/firebasenotif1/android/app/src/main/AndroidManifest.xml:1:1-60:12
		INJECTED from /Users/rullylukman/react-native/firebasenotif1/android/app/src/debug/AndroidManifest.xml
	xmlns:android
		ADDED from /Users/rullylukman/react-native/firebasenotif1/android/app/src/main/AndroidManifest.xml:1:11-69
uses-permission#android.permission.INTERNET
ADDED from /Users/rullylukman/react-native/firebasenotif1/android/app/src/main/AndroidManifest.xml:5:5-67
MERGED from [:react-native-firebase] /Users/rullylukman/react-native/firebasenotif1/node_modules/react-native-firebase/android/build/intermediates/library_manifest/debug/AndroidManifest.xml:11:5-67
MERGED from [:react-native-firebase] /Users/rullylukman/react-native/firebasenotif1/node_modules/react-native-firebase/android/build/intermediates/library_manifest/debug/AndroidManifest.xml:11:5-67
MERGED from [com.google.android.gms:play-services-measurement-api:16.4.0] /Users/rullylukman/.gradle/caches/transforms-1/files-1.1/play-services-measurement-api-16.4.0.aar/a8fbbbdd8033bb0277042705133b245e/AndroidManifest.xml:22:5-67
MERGED from [com.google.android.gms:play-services-measurement-api:16.4.0] /Users/rullylukman/.gradle/caches/transforms-1/files-1.1/play-services-measurement-api-16.4.0.aar/a8fbbbdd8033bb0277042705133b245e/AndroidManifest.xml:22:5-67
MERGED from [com.google.firebase:firebase-iid:17.1.1] /Users/rullylukman/.gradle/caches/transforms-1/files-1.1/firebase-iid-17.1.1.aar/fd357df0b54ab6590b79886a1e225b11/AndroidManifest.xml:23:5-67
MERGED from [com.google.firebase:firebase-iid:17.1.1] /Users/rullylukman/.gradle/caches/transforms-1/files-1.1/firebase-iid-17.1.1.aar/fd357df0b54ab6590b79886a1e225b11/AndroidManifest.xml:23:5-67
MERGED from [com.google.android.gms:play-services-measurement:16.4.0] /Users/rullylukman/.gradle/caches/transforms-1/files-1.1/play-services-measurement-16.4.0.aar/987426cc656aed1c31a7c24dbf845795/AndroidManifest.xml:23:5-67
MERGED from [com.google.android.gms:play-services-measurement:16.4.0] /Users/rullylukman/.gradle/caches/transforms-1/files-1.1/play-services-measurement-16.4.0.aar/987426cc656aed1c31a7c24dbf845795/AndroidManifest.xml:23:5-67
MERGED from [com.google.android.gms:play-services-measurement-impl:16.4.0] /Users/rullylukman/.gradle/caches/transforms-1/files-1.1/play-services-measurement-impl-16.4.0.aar/6a8697d9dfb948cde5c2c89c0a8cb591/AndroidManifest.xml:23:5-67
MERGED from [com.google.android.gms:play-services-measurement-impl:16.4.0] /Users/rullylukman/.gradle/caches/transforms-1/files-1.1/play-services-measurement-impl-16.4.0.aar/6a8697d9dfb948cde5c2c89c0a8cb591/AndroidManifest.xml:23:5-67
MERGED from [com.google.android.gms:play-services-measurement-sdk-api:16.4.0] /Users/rullylukman/.gradle/caches/transforms-1/files-1.1/play-services-measurement-sdk-api-16.4.0.aar/3ce0e49edecf0be61e6506d820bc3eff/AndroidManifest.xml:23:5-67
MERGED from [com.google.android.gms:play-services-measurement-sdk-api:16.4.0] /Users/rullylukman/.gradle/caches/transforms-1/files-1.1/play-services-measurement-sdk-api-16.4.0.aar/3ce0e49edecf0be61e6506d820bc3eff/AndroidManifest.xml:23:5-67
	android:name
		ADDED from /Users/rullylukman/react-native/firebasenotif1/android/app/src/main/AndroidManifest.xml:5:22-64
application
ADDED from /Users/rullylukman/react-native/firebasenotif1/android/app/src/main/AndroidManifest.xml:7:5-58:19
MERGED from /Users/rullylukman/react-native/firebasenotif1/android/app/src/main/AndroidManifest.xml:7:5-58:19
MERGED from /Users/rullylukman/react-native/firebasenotif1/android/app/src/main/AndroidManifest.xml:7:5-58:19
MERGED from [:react-native-firebase] /Users/rullylukman/react-native/firebasenotif1/node_modules/react-native-firebase/android/build/intermediates/library_manifest/debug/AndroidManifest.xml:15:5-21:19
MERGED from [:react-native-firebase] /Users/rullylukman/react-native/firebasenotif1/node_modules/react-native-firebase/android/build/intermediates/library_manifest/debug/AndroidManifest.xml:15:5-21:19
MERGED from [com.facebook.react:react-native:0.59.0] /Users/rullylukman/.gradle/caches/transforms-1/files-1.1/react-native-0.59.0.aar/77174908666829a635b3925c1d21e997/AndroidManifest.xml:11:5-20
MERGED from [com.facebook.react:react-native:0.59.0] /Users/rullylukman/.gradle/caches/transforms-1/files-1.1/react-native-0.59.0.aar/77174908666829a635b3925c1d21e997/AndroidManifest.xml:11:5-20
MERGED from [com.google.firebase:firebase-messaging:17.5.0] /Users/rullylukman/.gradle/caches/transforms-1/files-1.1/firebase-messaging-17.5.0.aar/c2d62b0c4a05663b4325c03b82e6dfb1/AndroidManifest.xml:22:5-35:19
MERGED from [com.google.firebase:firebase-messaging:17.5.0] /Users/rullylukman/.gradle/caches/transforms-1/files-1.1/firebase-messaging-17.5.0.aar/c2d62b0c4a05663b4325c03b82e6dfb1/AndroidManifest.xml:22:5-35:19
MERGED from [com.google.firebase:firebase-core:16.0.8] /Users/rullylukman/.gradle/caches/transforms-1/files-1.1/firebase-core-16.0.8.aar/10d5651ae16daada94a3caf41d992a12/AndroidManifest.xml:7:5-20
MERGED from [com.google.firebase:firebase-core:16.0.8] /Users/rullylukman/.gradle/caches/transforms-1/files-1.1/firebase-core-16.0.8.aar/10d5651ae16daada94a3caf41d992a12/AndroidManifest.xml:7:5-20
MERGED from [com.google.firebase:firebase-analytics:16.4.0] /Users/rullylukman/.gradle/caches/transforms-1/files-1.1/firebase-analytics-16.4.0.aar/a27ddc3b16b78c4e4d7f54847d69361a/AndroidManifest.xml:7:5-20
MERGED from [com.google.firebase:firebase-analytics:16.4.0] /Users/rullylukman/.gradle/caches/transforms-1/files-1.1/firebase-analytics-16.4.0.aar/a27ddc3b16b78c4e4d7f54847d69361a/AndroidManifest.xml:7:5-20
MERGED from [com.google.android.gms:play-services-measurement-api:16.4.0] /Users/rullylukman/.gradle/caches/transforms-1/files-1.1/play-services-measurement-api-16.4.0.aar/a8fbbbdd8033bb0277042705133b245e/AndroidManifest.xml:26:5-34:19
MERGED from [com.google.android.gms:play-services-measurement-api:16.4.0] /Users/rullylukman/.gradle/caches/transforms-1/files-1.1/play-services-measurement-api-16.4.0.aar/a8fbbbdd8033bb0277042705133b245e/AndroidManifest.xml:26:5-34:19
MERGED from [com.google.firebase:firebase-iid:17.1.1] /Users/rullylukman/.gradle/caches/transforms-1/files-1.1/firebase-iid-17.1.1.aar/fd357df0b54ab6590b79886a1e225b11/AndroidManifest.xml:28:5-57:19
MERGED from [com.google.firebase:firebase-iid:17.1.1] /Users/rullylukman/.gradle/caches/transforms-1/files-1.1/firebase-iid-17.1.1.aar/fd357df0b54ab6590b79886a1e225b11/AndroidManifest.xml:28:5-57:19
MERGED from [com.google.firebase:firebase-iid-interop:16.0.1] /Users/rullylukman/.gradle/caches/transforms-1/files-1.1/firebase-iid-interop-16.0.1.aar/1b751481bd5bdf88e1ba117160f28579/AndroidManifest.xml:7:5-8:19
MERGED from [com.google.firebase:firebase-iid-interop:16.0.1] /Users/rullylukman/.gradle/caches/transforms-1/files-1.1/firebase-iid-interop-16.0.1.aar/1b751481bd5bdf88e1ba117160f28579/AndroidManifest.xml:7:5-8:19
MERGED from [com.google.android.gms:play-services-base:16.1.0] /Users/rullylukman/.gradle/caches/transforms-1/files-1.1/play-services-base-16.1.0.aar/60ed1822ebb867f4d078fe99163877dd/AndroidManifest.xml:22:5-27:19
MERGED from [com.google.android.gms:play-services-base:16.1.0] /Users/rullylukman/.gradle/caches/transforms-1/files-1.1/play-services-base-16.1.0.aar/60ed1822ebb867f4d078fe99163877dd/AndroidManifest.xml:22:5-27:19
MERGED from [com.google.firebase:firebase-common:16.1.0] /Users/rullylukman/.gradle/caches/transforms-1/files-1.1/firebase-common-16.1.0.aar/ce99a6f01f7898065696782643932d25/AndroidManifest.xml:11:5-17:19
MERGED from [com.google.firebase:firebase-common:16.1.0] /Users/rullylukman/.gradle/caches/transforms-1/files-1.1/firebase-common-16.1.0.aar/ce99a6f01f7898065696782643932d25/AndroidManifest.xml:11:5-17:19
MERGED from [com.google.android.gms:play-services-tasks:16.0.1] /Users/rullylukman/.gradle/caches/transforms-1/files-1.1/play-services-tasks-16.0.1.aar/5a8944cd8a9e6f0f894964934250a29b/AndroidManifest.xml:7:5-20
MERGED from [com.google.android.gms:play-services-tasks:16.0.1] /Users/rullylukman/.gradle/caches/transforms-1/files-1.1/play-services-tasks-16.0.1.aar/5a8944cd8a9e6f0f894964934250a29b/AndroidManifest.xml:7:5-20
MERGED from [com.google.firebase:firebase-measurement-connector:17.0.1] /Users/rullylukman/.gradle/caches/transforms-1/files-1.1/firebase-measurement-connector-17.0.1.aar/e11f13e5ef848985299e7124f48b3ea1/AndroidManifest.xml:22:5-23:19
MERGED from [com.google.firebase:firebase-measurement-connector:17.0.1] /Users/rullylukman/.gradle/caches/transforms-1/files-1.1/firebase-measurement-connector-17.0.1.aar/e11f13e5ef848985299e7124f48b3ea1/AndroidManifest.xml:22:5-23:19
MERGED from [com.google.android.gms:play-services-measurement:16.4.0] /Users/rullylukman/.gradle/caches/transforms-1/files-1.1/play-services-measurement-16.4.0.aar/987426cc656aed1c31a7c24dbf845795/AndroidManifest.xml:28:5-53:19
MERGED from [com.google.android.gms:play-services-measurement:16.4.0] /Users/rullylukman/.gradle/caches/transforms-1/files-1.1/play-services-measurement-16.4.0.aar/987426cc656aed1c31a7c24dbf845795/AndroidManifest.xml:28:5-53:19
MERGED from [com.google.android.gms:play-services-measurement-sdk:16.4.0] /Users/rullylukman/.gradle/caches/transforms-1/files-1.1/play-services-measurement-sdk-16.4.0.aar/5262050ddde7874f2db892338b34e3bc/AndroidManifest.xml:22:5-23:19
MERGED from [com.google.android.gms:play-services-measurement-sdk:16.4.0] /Users/rullylukman/.gradle/caches/transforms-1/files-1.1/play-services-measurement-sdk-16.4.0.aar/5262050ddde7874f2db892338b34e3bc/AndroidManifest.xml:22:5-23:19
MERGED from [com.google.android.gms:play-services-measurement-impl:16.4.0] /Users/rullylukman/.gradle/caches/transforms-1/files-1.1/play-services-measurement-impl-16.4.0.aar/6a8697d9dfb948cde5c2c89c0a8cb591/AndroidManifest.xml:28:5-38:19
MERGED from [com.google.android.gms:play-services-measurement-impl:16.4.0] /Users/rullylukman/.gradle/caches/transforms-1/files-1.1/play-services-measurement-impl-16.4.0.aar/6a8697d9dfb948cde5c2c89c0a8cb591/AndroidManifest.xml:28:5-38:19
MERGED from [com.google.android.gms:play-services-stats:16.0.1] /Users/rullylukman/.gradle/caches/transforms-1/files-1.1/play-services-stats-16.0.1.aar/b65a99834f991aac1e5481e08b90a580/AndroidManifest.xml:7:5-20
MERGED from [com.google.android.gms:play-services-stats:16.0.1] /Users/rullylukman/.gradle/caches/transforms-1/files-1.1/play-services-stats-16.0.1.aar/b65a99834f991aac1e5481e08b90a580/AndroidManifest.xml:7:5-20
MERGED from [com.google.android.gms:play-services-measurement-sdk-api:16.4.0] /Users/rullylukman/.gradle/caches/transforms-1/files-1.1/play-services-measurement-sdk-api-16.4.0.aar/3ce0e49edecf0be61e6506d820bc3eff/AndroidManifest.xml:27:5-28:19
MERGED from [com.google.android.gms:play-services-measurement-sdk-api:16.4.0] /Users/rullylukman/.gradle/caches/transforms-1/files-1.1/play-services-measurement-sdk-api-16.4.0.aar/3ce0e49edecf0be61e6506d820bc3eff/AndroidManifest.xml:27:5-28:19
MERGED from [com.google.android.gms:play-services-measurement-base:16.4.0] /Users/rullylukman/.gradle/caches/transforms-1/files-1.1/play-services-measurement-base-16.4.0.aar/2a95d9e49d5ecfc4d77d943b6284e079/AndroidManifest.xml:7:5-20
MERGED from [com.google.android.gms:play-services-measurement-base:16.4.0] /Users/rullylukman/.gradle/caches/transforms-1/files-1.1/play-services-measurement-base-16.4.0.aar/2a95d9e49d5ecfc4d77d943b6284e079/AndroidManifest.xml:7:5-20
MERGED from [com.google.android.gms:play-services-ads-identifier:16.0.0] /Users/rullylukman/.gradle/caches/transforms-1/files-1.1/play-services-ads-identifier-16.0.0.aar/abcf34404cfb0ae86c9339f8d091509f/AndroidManifest.xml:22:5-20
MERGED from [com.google.android.gms:play-services-ads-identifier:16.0.0] /Users/rullylukman/.gradle/caches/transforms-1/files-1.1/play-services-ads-identifier-16.0.0.aar/abcf34404cfb0ae86c9339f8d091509f/AndroidManifest.xml:22:5-20
MERGED from [com.google.android.gms:play-services-basement:16.2.0] /Users/rullylukman/.gradle/caches/transforms-1/files-1.1/play-services-basement-16.2.0.aar/7eef0fc78f797144dfbc1b4ef40ba6b8/AndroidManifest.xml:22:5-26:19
MERGED from [com.google.android.gms:play-services-basement:16.2.0] /Users/rullylukman/.gradle/caches/transforms-1/files-1.1/play-services-basement-16.2.0.aar/7eef0fc78f797144dfbc1b4ef40ba6b8/AndroidManifest.xml:22:5-26:19
MERGED from [com.android.support:support-compat:28.0.0] /Users/rullylukman/.gradle/caches/transforms-1/files-1.1/support-compat-28.0.0.aar/ab65750ff7ada745641bb31faf1f9729/AndroidManifest.xml:22:5-94
MERGED from [com.android.support:support-compat:28.0.0] /Users/rullylukman/.gradle/caches/transforms-1/files-1.1/support-compat-28.0.0.aar/ab65750ff7ada745641bb31faf1f9729/AndroidManifest.xml:22:5-94
MERGED from [com.android.support:versionedparcelable:28.0.0] /Users/rullylukman/.gradle/caches/transforms-1/files-1.1/versionedparcelable-28.0.0.aar/f281e07a6c935f3147b3593f46170bc7/AndroidManifest.xml:22:5-23:19
MERGED from [com.android.support:versionedparcelable:28.0.0] /Users/rullylukman/.gradle/caches/transforms-1/files-1.1/versionedparcelable-28.0.0.aar/f281e07a6c935f3147b3593f46170bc7/AndroidManifest.xml:22:5-23:19
MERGED from [com.facebook.soloader:soloader:0.6.0] /Users/rullylukman/.gradle/caches/transforms-1/files-1.1/soloader-0.6.0.aar/a401eead49af514ebfec385604d01d00/AndroidManifest.xml:11:5-20
MERGED from [com.facebook.soloader:soloader:0.6.0] /Users/rullylukman/.gradle/caches/transforms-1/files-1.1/soloader-0.6.0.aar/a401eead49af514ebfec385604d01d00/AndroidManifest.xml:11:5-20
	android:appComponentFactory
		ADDED from [com.android.support:support-compat:28.0.0] /Users/rullylukman/.gradle/caches/transforms-1/files-1.1/support-compat-28.0.0.aar/ab65750ff7ada745641bb31faf1f9729/AndroidManifest.xml:22:18-91
	android:label
		ADDED from /Users/rullylukman/react-native/firebasenotif1/android/app/src/main/AndroidManifest.xml:9:7-39
		ADDED from /Users/rullylukman/react-native/firebasenotif1/android/app/src/main/AndroidManifest.xml:9:7-39
	tools:ignore
		ADDED from /Users/rullylukman/react-native/firebasenotif1/android/app/src/debug/AndroidManifest.xml:7:39-78
	android:roundIcon
		ADDED from /Users/rullylukman/react-native/firebasenotif1/android/app/src/main/AndroidManifest.xml:11:7-52
		ADDED from /Users/rullylukman/react-native/firebasenotif1/android/app/src/main/AndroidManifest.xml:11:7-52
	tools:targetApi
		ADDED from /Users/rullylukman/react-native/firebasenotif1/android/app/src/main/AndroidManifest.xml:13:7-27
	android:icon
		ADDED from /Users/rullylukman/react-native/firebasenotif1/android/app/src/main/AndroidManifest.xml:10:7-41
		ADDED from /Users/rullylukman/react-native/firebasenotif1/android/app/src/main/AndroidManifest.xml:10:7-41
	android:allowBackup
		ADDED from /Users/rullylukman/react-native/firebasenotif1/android/app/src/main/AndroidManifest.xml:12:7-34
		ADDED from /Users/rullylukman/react-native/firebasenotif1/android/app/src/main/AndroidManifest.xml:12:7-34
	android:networkSecurityConfig
		ADDED from /Users/rullylukman/react-native/firebasenotif1/android/app/src/debug/AndroidManifest.xml:7:79-135
	android:theme
		ADDED from /Users/rullylukman/react-native/firebasenotif1/android/app/src/main/AndroidManifest.xml:15:7-38
		ADDED from /Users/rullylukman/react-native/firebasenotif1/android/app/src/main/AndroidManifest.xml:15:7-38
	android:usesCleartextTraffic
		ADDED from /Users/rullylukman/react-native/firebasenotif1/android/app/src/main/AndroidManifest.xml:14:7-42
		ADDED from /Users/rullylukman/react-native/firebasenotif1/android/app/src/main/AndroidManifest.xml:14:7-42
	android:name
		ADDED from /Users/rullylukman/react-native/firebasenotif1/android/app/src/main/AndroidManifest.xml:8:7-38
		ADDED from /Users/rullylukman/react-native/firebasenotif1/android/app/src/main/AndroidManifest.xml:8:7-38
activity#com.firebasenotif1.MainActivity
ADDED from /Users/rullylukman/react-native/firebasenotif1/android/app/src/main/AndroidManifest.xml:16:7-26:18
	android:label
		ADDED from /Users/rullylukman/react-native/firebasenotif1/android/app/src/main/AndroidManifest.xml:18:9-41
	android:launchMode
		ADDED from /Users/rullylukman/react-native/firebasenotif1/android/app/src/main/AndroidManifest.xml:21:9-39
	android:windowSoftInputMode
		ADDED from /Users/rullylukman/react-native/firebasenotif1/android/app/src/main/AndroidManifest.xml:20:9-51
	android:configChanges
		ADDED from /Users/rullylukman/react-native/firebasenotif1/android/app/src/main/AndroidManifest.xml:19:9-79
	android:name
		ADDED from /Users/rullylukman/react-native/firebasenotif1/android/app/src/main/AndroidManifest.xml:17:9-37
intent-filter#action:name:android.intent.action.MAIN+category:name:android.intent.category.LAUNCHER
ADDED from /Users/rullylukman/react-native/firebasenotif1/android/app/src/main/AndroidManifest.xml:22:9-25:25
action#android.intent.action.MAIN
ADDED from /Users/rullylukman/react-native/firebasenotif1/android/app/src/main/AndroidManifest.xml:23:13-65
	android:name
		ADDED from /Users/rullylukman/react-native/firebasenotif1/android/app/src/main/AndroidManifest.xml:23:21-62
category#android.intent.category.LAUNCHER
ADDED from /Users/rullylukman/react-native/firebasenotif1/android/app/src/main/AndroidManifest.xml:24:13-73
	android:name
		ADDED from /Users/rullylukman/react-native/firebasenotif1/android/app/src/main/AndroidManifest.xml:24:23-70
activity#com.facebook.react.devsupport.DevSettingsActivity
ADDED from /Users/rullylukman/react-native/firebasenotif1/android/app/src/main/AndroidManifest.xml:27:7-84
	android:name
		ADDED from /Users/rullylukman/react-native/firebasenotif1/android/app/src/main/AndroidManifest.xml:27:17-81
service#io.invertase.firebase.messaging.RNFirebaseMessagingService
ADDED from /Users/rullylukman/react-native/firebasenotif1/android/app/src/main/AndroidManifest.xml:29:7-33:13
	android:name
		ADDED from /Users/rullylukman/react-native/firebasenotif1/android/app/src/main/AndroidManifest.xml:29:16-89
intent-filter#action:name:com.google.firebase.MESSAGING_EVENT
ADDED from /Users/rullylukman/react-native/firebasenotif1/android/app/src/main/AndroidManifest.xml:30:5-32:21
action#com.google.firebase.MESSAGING_EVENT
ADDED from /Users/rullylukman/react-native/firebasenotif1/android/app/src/main/AndroidManifest.xml:31:7-68
	android:name
		ADDED from /Users/rullylukman/react-native/firebasenotif1/android/app/src/main/AndroidManifest.xml:31:15-65
service#io.invertase.firebase.messaging.RNFirebaseBackgroundMessagingService
ADDED from /Users/rullylukman/react-native/firebasenotif1/android/app/src/main/AndroidManifest.xml:34:3-98
	android:name
		ADDED from /Users/rullylukman/react-native/firebasenotif1/android/app/src/main/AndroidManifest.xml:34:12-95
meta-data#com.google.firebase.messaging.default_notification_icon
ADDED from /Users/rullylukman/react-native/firebasenotif1/android/app/src/main/AndroidManifest.xml:36:3-38:48
	android:resource
		ADDED from /Users/rullylukman/react-native/firebasenotif1/android/app/src/main/AndroidManifest.xml:38:5-45
	android:name
		ADDED from /Users/rullylukman/react-native/firebasenotif1/android/app/src/main/AndroidManifest.xml:37:5-75
meta-data#com.google.firebase.messaging.default_notification_color
ADDED from /Users/rullylukman/react-native/firebasenotif1/android/app/src/main/AndroidManifest.xml:41:3-43:51
	android:resource
		ADDED from /Users/rullylukman/react-native/firebasenotif1/android/app/src/main/AndroidManifest.xml:43:5-48
	android:name
		ADDED from /Users/rullylukman/react-native/firebasenotif1/android/app/src/main/AndroidManifest.xml:42:5-76
meta-data#com.google.firebase.messaging.default_notification_channel_id
ADDED from /Users/rullylukman/react-native/firebasenotif1/android/app/src/main/AndroidManifest.xml:45:5-47:64
	android:value
		ADDED from /Users/rullylukman/react-native/firebasenotif1/android/app/src/main/AndroidManifest.xml:47:7-62
	android:name
		ADDED from /Users/rullylukman/react-native/firebasenotif1/android/app/src/main/AndroidManifest.xml:46:7-83
receiver#io.invertase.firebase.notifications.RNFirebaseNotificationReceiver
ADDED from /Users/rullylukman/react-native/firebasenotif1/android/app/src/main/AndroidManifest.xml:49:5-98
	android:name
		ADDED from /Users/rullylukman/react-native/firebasenotif1/android/app/src/main/AndroidManifest.xml:49:15-96
receiver#io.invertase.firebase.notifications.RNFirebaseNotificationsRebootReceiver
ADDED from /Users/rullylukman/react-native/firebasenotif1/android/app/src/main/AndroidManifest.xml:50:7-57:18
	android:enabled
		ADDED from /Users/rullylukman/react-native/firebasenotif1/android/app/src/main/AndroidManifest.xml:50:17-39
	android:exported
		ADDED from /Users/rullylukman/react-native/firebasenotif1/android/app/src/main/AndroidManifest.xml:50:40-63
	android:name
		ADDED from /Users/rullylukman/react-native/firebasenotif1/android/app/src/main/AndroidManifest.xml:50:65-153
intent-filter#action:name:android.intent.action.BOOT_COMPLETED+action:name:android.intent.action.QUICKBOOT_POWERON+action:name:com.htc.intent.action.QUICKBOOT_POWERON+category:name:android.intent.category.DEFAULT
ADDED from /Users/rullylukman/react-native/firebasenotif1/android/app/src/main/AndroidManifest.xml:51:9-56:25
action#android.intent.action.BOOT_COMPLETED
ADDED from /Users/rullylukman/react-native/firebasenotif1/android/app/src/main/AndroidManifest.xml:52:11-72
	android:name
		ADDED from /Users/rullylukman/react-native/firebasenotif1/android/app/src/main/AndroidManifest.xml:52:19-70
action#android.intent.action.QUICKBOOT_POWERON
ADDED from /Users/rullylukman/react-native/firebasenotif1/android/app/src/main/AndroidManifest.xml:53:11-75
	android:name
		ADDED from /Users/rullylukman/react-native/firebasenotif1/android/app/src/main/AndroidManifest.xml:53:19-73
action#com.htc.intent.action.QUICKBOOT_POWERON
ADDED from /Users/rullylukman/react-native/firebasenotif1/android/app/src/main/AndroidManifest.xml:54:11-75
	android:name
		ADDED from /Users/rullylukman/react-native/firebasenotif1/android/app/src/main/AndroidManifest.xml:54:19-73
category#android.intent.category.DEFAULT
ADDED from /Users/rullylukman/react-native/firebasenotif1/android/app/src/main/AndroidManifest.xml:55:10-69
	android:name
		ADDED from /Users/rullylukman/react-native/firebasenotif1/android/app/src/main/AndroidManifest.xml:55:20-66
uses-sdk
INJECTED from /Users/rullylukman/react-native/firebasenotif1/android/app/src/main/AndroidManifest.xml reason: use-sdk injection requested
INJECTED from /Users/rullylukman/react-native/firebasenotif1/android/app/src/main/AndroidManifest.xml
INJECTED from /Users/rullylukman/react-native/firebasenotif1/android/app/src/main/AndroidManifest.xml
MERGED from [:react-native-firebase] /Users/rullylukman/react-native/firebasenotif1/node_modules/react-native-firebase/android/build/intermediates/library_manifest/debug/AndroidManifest.xml:7:5-9:41
MERGED from [:react-native-firebase] /Users/rullylukman/react-native/firebasenotif1/node_modules/react-native-firebase/android/build/intermediates/library_manifest/debug/AndroidManifest.xml:7:5-9:41
MERGED from [com.facebook.react:react-native:0.59.0] /Users/rullylukman/.gradle/caches/transforms-1/files-1.1/react-native-0.59.0.aar/77174908666829a635b3925c1d21e997/AndroidManifest.xml:7:5-9:41
MERGED from [com.facebook.react:react-native:0.59.0] /Users/rullylukman/.gradle/caches/transforms-1/files-1.1/react-native-0.59.0.aar/77174908666829a635b3925c1d21e997/AndroidManifest.xml:7:5-9:41
MERGED from [com.android.support:appcompat-v7:28.0.0] /Users/rullylukman/.gradle/caches/transforms-1/files-1.1/appcompat-v7-28.0.0.aar/b96b3c957d8945b7cf45d03f4091c313/AndroidManifest.xml:20:5-44
MERGED from [com.android.support:appcompat-v7:28.0.0] /Users/rullylukman/.gradle/caches/transforms-1/files-1.1/appcompat-v7-28.0.0.aar/b96b3c957d8945b7cf45d03f4091c313/AndroidManifest.xml:20:5-44
MERGED from [com.google.firebase:firebase-messaging:17.5.0] /Users/rullylukman/.gradle/caches/transforms-1/files-1.1/firebase-messaging-17.5.0.aar/c2d62b0c4a05663b4325c03b82e6dfb1/AndroidManifest.xml:20:5-44
MERGED from [com.google.firebase:firebase-messaging:17.5.0] /Users/rullylukman/.gradle/caches/transforms-1/files-1.1/firebase-messaging-17.5.0.aar/c2d62b0c4a05663b4325c03b82e6dfb1/AndroidManifest.xml:20:5-44
MERGED from [com.google.firebase:firebase-core:16.0.8] /Users/rullylukman/.gradle/caches/transforms-1/files-1.1/firebase-core-16.0.8.aar/10d5651ae16daada94a3caf41d992a12/AndroidManifest.xml:5:5-44
MERGED from [com.google.firebase:firebase-core:16.0.8] /Users/rullylukman/.gradle/caches/transforms-1/files-1.1/firebase-core-16.0.8.aar/10d5651ae16daada94a3caf41d992a12/AndroidManifest.xml:5:5-44
MERGED from [com.google.firebase:firebase-analytics:16.4.0] /Users/rullylukman/.gradle/caches/transforms-1/files-1.1/firebase-analytics-16.4.0.aar/a27ddc3b16b78c4e4d7f54847d69361a/AndroidManifest.xml:5:5-44
MERGED from [com.google.firebase:firebase-analytics:16.4.0] /Users/rullylukman/.gradle/caches/transforms-1/files-1.1/firebase-analytics-16.4.0.aar/a27ddc3b16b78c4e4d7f54847d69361a/AndroidManifest.xml:5:5-44
MERGED from [com.google.android.gms:play-services-measurement-api:16.4.0] /Users/rullylukman/.gradle/caches/transforms-1/files-1.1/play-services-measurement-api-16.4.0.aar/a8fbbbdd8033bb0277042705133b245e/AndroidManifest.xml:20:5-44
MERGED from [com.google.android.gms:play-services-measurement-api:16.4.0] /Users/rullylukman/.gradle/caches/transforms-1/files-1.1/play-services-measurement-api-16.4.0.aar/a8fbbbdd8033bb0277042705133b245e/AndroidManifest.xml:20:5-44
MERGED from [com.google.firebase:firebase-iid:17.1.1] /Users/rullylukman/.gradle/caches/transforms-1/files-1.1/firebase-iid-17.1.1.aar/fd357df0b54ab6590b79886a1e225b11/AndroidManifest.xml:20:5-44
MERGED from [com.google.firebase:firebase-iid:17.1.1] /Users/rullylukman/.gradle/caches/transforms-1/files-1.1/firebase-iid-17.1.1.aar/fd357df0b54ab6590b79886a1e225b11/AndroidManifest.xml:20:5-44
MERGED from [com.google.firebase:firebase-iid-interop:16.0.1] /Users/rullylukman/.gradle/caches/transforms-1/files-1.1/firebase-iid-interop-16.0.1.aar/1b751481bd5bdf88e1ba117160f28579/AndroidManifest.xml:5:5-44
MERGED from [com.google.firebase:firebase-iid-interop:16.0.1] /Users/rullylukman/.gradle/caches/transforms-1/files-1.1/firebase-iid-interop-16.0.1.aar/1b751481bd5bdf88e1ba117160f28579/AndroidManifest.xml:5:5-44
MERGED from [com.google.android.gms:play-services-base:16.1.0] /Users/rullylukman/.gradle/caches/transforms-1/files-1.1/play-services-base-16.1.0.aar/60ed1822ebb867f4d078fe99163877dd/AndroidManifest.xml:20:5-44
MERGED from [com.google.android.gms:play-services-base:16.1.0] /Users/rullylukman/.gradle/caches/transforms-1/files-1.1/play-services-base-16.1.0.aar/60ed1822ebb867f4d078fe99163877dd/AndroidManifest.xml:20:5-44
MERGED from [com.google.firebase:firebase-common:16.1.0] /Users/rullylukman/.gradle/caches/transforms-1/files-1.1/firebase-common-16.1.0.aar/ce99a6f01f7898065696782643932d25/AndroidManifest.xml:6:5-8:41
MERGED from [com.google.firebase:firebase-common:16.1.0] /Users/rullylukman/.gradle/caches/transforms-1/files-1.1/firebase-common-16.1.0.aar/ce99a6f01f7898065696782643932d25/AndroidManifest.xml:6:5-8:41
MERGED from [com.google.android.gms:play-services-tasks:16.0.1] /Users/rullylukman/.gradle/caches/transforms-1/files-1.1/play-services-tasks-16.0.1.aar/5a8944cd8a9e6f0f894964934250a29b/AndroidManifest.xml:5:5-44
MERGED from [com.google.android.gms:play-services-tasks:16.0.1] /Users/rullylukman/.gradle/caches/transforms-1/files-1.1/play-services-tasks-16.0.1.aar/5a8944cd8a9e6f0f894964934250a29b/AndroidManifest.xml:5:5-44
MERGED from [com.google.firebase:firebase-measurement-connector:17.0.1] /Users/rullylukman/.gradle/caches/transforms-1/files-1.1/firebase-measurement-connector-17.0.1.aar/e11f13e5ef848985299e7124f48b3ea1/AndroidManifest.xml:20:5-44
MERGED from [com.google.firebase:firebase-measurement-connector:17.0.1] /Users/rullylukman/.gradle/caches/transforms-1/files-1.1/firebase-measurement-connector-17.0.1.aar/e11f13e5ef848985299e7124f48b3ea1/AndroidManifest.xml:20:5-44
MERGED from [com.google.android.gms:play-services-measurement:16.4.0] /Users/rullylukman/.gradle/caches/transforms-1/files-1.1/play-services-measurement-16.4.0.aar/987426cc656aed1c31a7c24dbf845795/AndroidManifest.xml:20:5-44
MERGED from [com.google.android.gms:play-services-measurement:16.4.0] /Users/rullylukman/.gradle/caches/transforms-1/files-1.1/play-services-measurement-16.4.0.aar/987426cc656aed1c31a7c24dbf845795/AndroidManifest.xml:20:5-44
MERGED from [com.google.android.gms:play-services-measurement-sdk:16.4.0] /Users/rullylukman/.gradle/caches/transforms-1/files-1.1/play-services-measurement-sdk-16.4.0.aar/5262050ddde7874f2db892338b34e3bc/AndroidManifest.xml:20:5-44
MERGED from [com.google.android.gms:play-services-measurement-sdk:16.4.0] /Users/rullylukman/.gradle/caches/transforms-1/files-1.1/play-services-measurement-sdk-16.4.0.aar/5262050ddde7874f2db892338b34e3bc/AndroidManifest.xml:20:5-44
MERGED from [com.google.android.gms:play-services-measurement-impl:16.4.0] /Users/rullylukman/.gradle/caches/transforms-1/files-1.1/play-services-measurement-impl-16.4.0.aar/6a8697d9dfb948cde5c2c89c0a8cb591/AndroidManifest.xml:20:5-44
MERGED from [com.google.android.gms:play-services-measurement-impl:16.4.0] /Users/rullylukman/.gradle/caches/transforms-1/files-1.1/play-services-measurement-impl-16.4.0.aar/6a8697d9dfb948cde5c2c89c0a8cb591/AndroidManifest.xml:20:5-44
MERGED from [com.google.android.gms:play-services-stats:16.0.1] /Users/rullylukman/.gradle/caches/transforms-1/files-1.1/play-services-stats-16.0.1.aar/b65a99834f991aac1e5481e08b90a580/AndroidManifest.xml:5:5-44
MERGED from [com.google.android.gms:play-services-stats:16.0.1] /Users/rullylukman/.gradle/caches/transforms-1/files-1.1/play-services-stats-16.0.1.aar/b65a99834f991aac1e5481e08b90a580/AndroidManifest.xml:5:5-44
MERGED from [com.google.android.gms:play-services-measurement-sdk-api:16.4.0] /Users/rullylukman/.gradle/caches/transforms-1/files-1.1/play-services-measurement-sdk-api-16.4.0.aar/3ce0e49edecf0be61e6506d820bc3eff/AndroidManifest.xml:20:5-44
MERGED from [com.google.android.gms:play-services-measurement-sdk-api:16.4.0] /Users/rullylukman/.gradle/caches/transforms-1/files-1.1/play-services-measurement-sdk-api-16.4.0.aar/3ce0e49edecf0be61e6506d820bc3eff/AndroidManifest.xml:20:5-44
MERGED from [com.google.android.gms:play-services-measurement-base:16.4.0] /Users/rullylukman/.gradle/caches/transforms-1/files-1.1/play-services-measurement-base-16.4.0.aar/2a95d9e49d5ecfc4d77d943b6284e079/AndroidManifest.xml:5:5-44
MERGED from [com.google.android.gms:play-services-measurement-base:16.4.0] /Users/rullylukman/.gradle/caches/transforms-1/files-1.1/play-services-measurement-base-16.4.0.aar/2a95d9e49d5ecfc4d77d943b6284e079/AndroidManifest.xml:5:5-44
MERGED from [com.google.android.gms:play-services-ads-identifier:16.0.0] /Users/rullylukman/.gradle/caches/transforms-1/files-1.1/play-services-ads-identifier-16.0.0.aar/abcf34404cfb0ae86c9339f8d091509f/AndroidManifest.xml:20:5-44
MERGED from [com.google.android.gms:play-services-ads-identifier:16.0.0] /Users/rullylukman/.gradle/caches/transforms-1/files-1.1/play-services-ads-identifier-16.0.0.aar/abcf34404cfb0ae86c9339f8d091509f/AndroidManifest.xml:20:5-44
MERGED from [com.google.android.gms:play-services-basement:16.2.0] /Users/rullylukman/.gradle/caches/transforms-1/files-1.1/play-services-basement-16.2.0.aar/7eef0fc78f797144dfbc1b4ef40ba6b8/AndroidManifest.xml:20:5-44
MERGED from [com.google.android.gms:play-services-basement:16.2.0] /Users/rullylukman/.gradle/caches/transforms-1/files-1.1/play-services-basement-16.2.0.aar/7eef0fc78f797144dfbc1b4ef40ba6b8/AndroidManifest.xml:20:5-44
MERGED from [com.android.support:support-v4:28.0.0] /Users/rullylukman/.gradle/caches/transforms-1/files-1.1/support-v4-28.0.0.aar/b1e9b62f4cdccfd4e57f6dbbe271a8ad/AndroidManifest.xml:20:5-44
MERGED from [com.android.support:support-v4:28.0.0] /Users/rullylukman/.gradle/caches/transforms-1/files-1.1/support-v4-28.0.0.aar/b1e9b62f4cdccfd4e57f6dbbe271a8ad/AndroidManifest.xml:20:5-44
MERGED from [com.android.support:multidex:1.0.2] /Users/rullylukman/.gradle/caches/transforms-1/files-1.1/multidex-1.0.2.aar/2b6f23387e9ddc45999b9b9135be8c0d/AndroidManifest.xml:20:5-43
MERGED from [com.android.support:multidex:1.0.2] /Users/rullylukman/.gradle/caches/transforms-1/files-1.1/multidex-1.0.2.aar/2b6f23387e9ddc45999b9b9135be8c0d/AndroidManifest.xml:20:5-43
MERGED from [com.android.support:support-fragment:28.0.0] /Users/rullylukman/.gradle/caches/transforms-1/files-1.1/support-fragment-28.0.0.aar/24d7a3305dec31cf8384f0a862855d33/AndroidManifest.xml:20:5-44
MERGED from [com.android.support:support-fragment:28.0.0] /Users/rullylukman/.gradle/caches/transforms-1/files-1.1/support-fragment-28.0.0.aar/24d7a3305dec31cf8384f0a862855d33/AndroidManifest.xml:20:5-44
MERGED from [com.android.support:animated-vector-drawable:28.0.0] /Users/rullylukman/.gradle/caches/transforms-1/files-1.1/animated-vector-drawable-28.0.0.aar/064c0f2643383a04d3df36849ad6d9e1/AndroidManifest.xml:20:5-44
MERGED from [com.android.support:animated-vector-drawable:28.0.0] /Users/rullylukman/.gradle/caches/transforms-1/files-1.1/animated-vector-drawable-28.0.0.aar/064c0f2643383a04d3df36849ad6d9e1/AndroidManifest.xml:20:5-44
MERGED from [com.android.support:support-core-ui:28.0.0] /Users/rullylukman/.gradle/caches/transforms-1/files-1.1/support-core-ui-28.0.0.aar/d2d7eca7b22dc2ff305b683a34d00bbb/AndroidManifest.xml:20:5-44
MERGED from [com.android.support:support-core-ui:28.0.0] /Users/rullylukman/.gradle/caches/transforms-1/files-1.1/support-core-ui-28.0.0.aar/d2d7eca7b22dc2ff305b683a34d00bbb/AndroidManifest.xml:20:5-44
MERGED from [com.android.support:support-core-utils:28.0.0] /Users/rullylukman/.gradle/caches/transforms-1/files-1.1/support-core-utils-28.0.0.aar/b3e1f2ec3f450477baa36058cc7fc42b/AndroidManifest.xml:20:5-44
MERGED from [com.android.support:support-core-utils:28.0.0] /Users/rullylukman/.gradle/caches/transforms-1/files-1.1/support-core-utils-28.0.0.aar/b3e1f2ec3f450477baa36058cc7fc42b/AndroidManifest.xml:20:5-44
MERGED from [com.android.support:support-vector-drawable:28.0.0] /Users/rullylukman/.gradle/caches/transforms-1/files-1.1/support-vector-drawable-28.0.0.aar/4013e8e8144d264f5e8a298dea8b6484/AndroidManifest.xml:20:5-44
MERGED from [com.android.support:support-vector-drawable:28.0.0] /Users/rullylukman/.gradle/caches/transforms-1/files-1.1/support-vector-drawable-28.0.0.aar/4013e8e8144d264f5e8a298dea8b6484/AndroidManifest.xml:20:5-44
MERGED from [com.android.support:support-media-compat:28.0.0] /Users/rullylukman/.gradle/caches/transforms-1/files-1.1/support-media-compat-28.0.0.aar/85b6d730706f38811a52483126737033/AndroidManifest.xml:20:5-44
MERGED from [com.android.support:support-media-compat:28.0.0] /Users/rullylukman/.gradle/caches/transforms-1/files-1.1/support-media-compat-28.0.0.aar/85b6d730706f38811a52483126737033/AndroidManifest.xml:20:5-44
MERGED from [com.android.support:loader:28.0.0] /Users/rullylukman/.gradle/caches/transforms-1/files-1.1/loader-28.0.0.aar/4be8a070d93b8a05493a90ee530ea3cb/AndroidManifest.xml:20:5-44
MERGED from [com.android.support:loader:28.0.0] /Users/rullylukman/.gradle/caches/transforms-1/files-1.1/loader-28.0.0.aar/4be8a070d93b8a05493a90ee530ea3cb/AndroidManifest.xml:20:5-44
MERGED from [com.android.support:viewpager:28.0.0] /Users/rullylukman/.gradle/caches/transforms-1/files-1.1/viewpager-28.0.0.aar/04149553624dbbea61a5d0ca7d42656e/AndroidManifest.xml:20:5-44
MERGED from [com.android.support:viewpager:28.0.0] /Users/rullylukman/.gradle/caches/transforms-1/files-1.1/viewpager-28.0.0.aar/04149553624dbbea61a5d0ca7d42656e/AndroidManifest.xml:20:5-44
MERGED from [com.android.support:coordinatorlayout:28.0.0] /Users/rullylukman/.gradle/caches/transforms-1/files-1.1/coordinatorlayout-28.0.0.aar/fd0e744f4700babedb23ee81a9dac82b/AndroidManifest.xml:20:5-44
MERGED from [com.android.support:coordinatorlayout:28.0.0] /Users/rullylukman/.gradle/caches/transforms-1/files-1.1/coordinatorlayout-28.0.0.aar/fd0e744f4700babedb23ee81a9dac82b/AndroidManifest.xml:20:5-44
MERGED from [com.android.support:drawerlayout:28.0.0] /Users/rullylukman/.gradle/caches/transforms-1/files-1.1/drawerlayout-28.0.0.aar/6657f535d75205c663c8fa5000614a1d/AndroidManifest.xml:20:5-44
MERGED from [com.android.support:drawerlayout:28.0.0] /Users/rullylukman/.gradle/caches/transforms-1/files-1.1/drawerlayout-28.0.0.aar/6657f535d75205c663c8fa5000614a1d/AndroidManifest.xml:20:5-44
MERGED from [com.android.support:slidingpanelayout:28.0.0] /Users/rullylukman/.gradle/caches/transforms-1/files-1.1/slidingpanelayout-28.0.0.aar/80bd4677bae273113574c2a2d51a6c07/AndroidManifest.xml:20:5-44
MERGED from [com.android.support:slidingpanelayout:28.0.0] /Users/rullylukman/.gradle/caches/transforms-1/files-1.1/slidingpanelayout-28.0.0.aar/80bd4677bae273113574c2a2d51a6c07/AndroidManifest.xml:20:5-44
MERGED from [com.android.support:customview:28.0.0] /Users/rullylukman/.gradle/caches/transforms-1/files-1.1/customview-28.0.0.aar/0ad381553eca72309ad8cc2fb25e663c/AndroidManifest.xml:20:5-44
MERGED from [com.android.support:customview:28.0.0] /Users/rullylukman/.gradle/caches/transforms-1/files-1.1/customview-28.0.0.aar/0ad381553eca72309ad8cc2fb25e663c/AndroidManifest.xml:20:5-44
MERGED from [com.android.support:swiperefreshlayout:28.0.0] /Users/rullylukman/.gradle/caches/transforms-1/files-1.1/swiperefreshlayout-28.0.0.aar/24a3739b96c7d60642c059b8559635e1/AndroidManifest.xml:20:5-44
MERGED from [com.android.support:swiperefreshlayout:28.0.0] /Users/rullylukman/.gradle/caches/transforms-1/files-1.1/swiperefreshlayout-28.0.0.aar/24a3739b96c7d60642c059b8559635e1/AndroidManifest.xml:20:5-44
MERGED from [com.android.support:asynclayoutinflater:28.0.0] /Users/rullylukman/.gradle/caches/transforms-1/files-1.1/asynclayoutinflater-28.0.0.aar/b7e764ac83d4e367637fa382cd8af060/AndroidManifest.xml:20:5-44
MERGED from [com.android.support:asynclayoutinflater:28.0.0] /Users/rullylukman/.gradle/caches/transforms-1/files-1.1/asynclayoutinflater-28.0.0.aar/b7e764ac83d4e367637fa382cd8af060/AndroidManifest.xml:20:5-44
MERGED from [com.android.support:support-compat:28.0.0] /Users/rullylukman/.gradle/caches/transforms-1/files-1.1/support-compat-28.0.0.aar/ab65750ff7ada745641bb31faf1f9729/AndroidManifest.xml:20:5-44
MERGED from [com.android.support:support-compat:28.0.0] /Users/rullylukman/.gradle/caches/transforms-1/files-1.1/support-compat-28.0.0.aar/ab65750ff7ada745641bb31faf1f9729/AndroidManifest.xml:20:5-44
MERGED from [com.android.support:versionedparcelable:28.0.0] /Users/rullylukman/.gradle/caches/transforms-1/files-1.1/versionedparcelable-28.0.0.aar/f281e07a6c935f3147b3593f46170bc7/AndroidManifest.xml:20:5-44
MERGED from [com.android.support:versionedparcelable:28.0.0] /Users/rullylukman/.gradle/caches/transforms-1/files-1.1/versionedparcelable-28.0.0.aar/f281e07a6c935f3147b3593f46170bc7/AndroidManifest.xml:20:5-44
MERGED from [com.android.support:cursoradapter:28.0.0] /Users/rullylukman/.gradle/caches/transforms-1/files-1.1/cursoradapter-28.0.0.aar/ce1019d50135bfb1c56196d470e68486/AndroidManifest.xml:20:5-44
MERGED from [com.android.support:cursoradapter:28.0.0] /Users/rullylukman/.gradle/caches/transforms-1/files-1.1/cursoradapter-28.0.0.aar/ce1019d50135bfb1c56196d470e68486/AndroidManifest.xml:20:5-44
MERGED from [android.arch.lifecycle:runtime:1.1.1] /Users/rullylukman/.gradle/caches/transforms-1/files-1.1/runtime-1.1.1.aar/7155f6e653c7c565b38e570002f65dcc/AndroidManifest.xml:20:5-44
MERGED from [android.arch.lifecycle:runtime:1.1.1] /Users/rullylukman/.gradle/caches/transforms-1/files-1.1/runtime-1.1.1.aar/7155f6e653c7c565b38e570002f65dcc/AndroidManifest.xml:20:5-44
MERGED from [com.android.support:documentfile:28.0.0] /Users/rullylukman/.gradle/caches/transforms-1/files-1.1/documentfile-28.0.0.aar/f85cac31ce2d5d7de572f37d930edc73/AndroidManifest.xml:20:5-44
MERGED from [com.android.support:documentfile:28.0.0] /Users/rullylukman/.gradle/caches/transforms-1/files-1.1/documentfile-28.0.0.aar/f85cac31ce2d5d7de572f37d930edc73/AndroidManifest.xml:20:5-44
MERGED from [com.android.support:localbroadcastmanager:28.0.0] /Users/rullylukman/.gradle/caches/transforms-1/files-1.1/localbroadcastmanager-28.0.0.aar/562aa31acdbda8a3e1be8ad31d6106e4/AndroidManifest.xml:20:5-44
MERGED from [com.android.support:localbroadcastmanager:28.0.0] /Users/rullylukman/.gradle/caches/transforms-1/files-1.1/localbroadcastmanager-28.0.0.aar/562aa31acdbda8a3e1be8ad31d6106e4/AndroidManifest.xml:20:5-44
MERGED from [com.android.support:print:28.0.0] /Users/rullylukman/.gradle/caches/transforms-1/files-1.1/print-28.0.0.aar/3a1a7e92c362af28e6e7e43416ce2559/AndroidManifest.xml:20:5-44
MERGED from [com.android.support:print:28.0.0] /Users/rullylukman/.gradle/caches/transforms-1/files-1.1/print-28.0.0.aar/3a1a7e92c362af28e6e7e43416ce2559/AndroidManifest.xml:20:5-44
MERGED from [android.arch.lifecycle:viewmodel:1.1.1] /Users/rullylukman/.gradle/caches/transforms-1/files-1.1/viewmodel-1.1.1.aar/bfd1173b3cb86390aefa5bfe4891fac2/AndroidManifest.xml:20:5-44
MERGED from [android.arch.lifecycle:viewmodel:1.1.1] /Users/rullylukman/.gradle/caches/transforms-1/files-1.1/viewmodel-1.1.1.aar/bfd1173b3cb86390aefa5bfe4891fac2/AndroidManifest.xml:20:5-44
MERGED from [com.android.support:interpolator:28.0.0] /Users/rullylukman/.gradle/caches/transforms-1/files-1.1/interpolator-28.0.0.aar/e3ceee76579b365789cdca8e4b95db18/AndroidManifest.xml:20:5-44
MERGED from [com.android.support:interpolator:28.0.0] /Users/rullylukman/.gradle/caches/transforms-1/files-1.1/interpolator-28.0.0.aar/e3ceee76579b365789cdca8e4b95db18/AndroidManifest.xml:20:5-44
MERGED from [android.arch.lifecycle:livedata:1.1.1] /Users/rullylukman/.gradle/caches/transforms-1/files-1.1/livedata-1.1.1.aar/6c463e5f47aa33e73991c488d51284ae/AndroidManifest.xml:20:5-44
MERGED from [android.arch.lifecycle:livedata:1.1.1] /Users/rullylukman/.gradle/caches/transforms-1/files-1.1/livedata-1.1.1.aar/6c463e5f47aa33e73991c488d51284ae/AndroidManifest.xml:20:5-44
MERGED from [android.arch.lifecycle:livedata-core:1.1.1] /Users/rullylukman/.gradle/caches/transforms-1/files-1.1/livedata-core-1.1.1.aar/36e40bf117d890d2f5d79ce4d5881f8e/AndroidManifest.xml:20:5-44
MERGED from [android.arch.lifecycle:livedata-core:1.1.1] /Users/rullylukman/.gradle/caches/transforms-1/files-1.1/livedata-core-1.1.1.aar/36e40bf117d890d2f5d79ce4d5881f8e/AndroidManifest.xml:20:5-44
MERGED from [android.arch.core:runtime:1.1.1] /Users/rullylukman/.gradle/caches/transforms-1/files-1.1/runtime-1.1.1.aar/0c619a4abd9e1534c3ab4ab089eebec1/AndroidManifest.xml:20:5-44
MERGED from [android.arch.core:runtime:1.1.1] /Users/rullylukman/.gradle/caches/transforms-1/files-1.1/runtime-1.1.1.aar/0c619a4abd9e1534c3ab4ab089eebec1/AndroidManifest.xml:20:5-44
MERGED from [com.facebook.fresco:fresco:1.10.0] /Users/rullylukman/.gradle/caches/transforms-1/files-1.1/fresco-1.10.0.aar/a3e28c388eda31fe2a35bdcddd3fc5ce/AndroidManifest.xml:5:5-7:41
MERGED from [com.facebook.fresco:fresco:1.10.0] /Users/rullylukman/.gradle/caches/transforms-1/files-1.1/fresco-1.10.0.aar/a3e28c388eda31fe2a35bdcddd3fc5ce/AndroidManifest.xml:5:5-7:41
MERGED from [com.facebook.fresco:imagepipeline-okhttp3:1.10.0] /Users/rullylukman/.gradle/caches/transforms-1/files-1.1/imagepipeline-okhttp3-1.10.0.aar/ea4f6becc6333422bef8bd35bf081696/AndroidManifest.xml:5:5-7:41
MERGED from [com.facebook.fresco:imagepipeline-okhttp3:1.10.0] /Users/rullylukman/.gradle/caches/transforms-1/files-1.1/imagepipeline-okhttp3-1.10.0.aar/ea4f6becc6333422bef8bd35bf081696/AndroidManifest.xml:5:5-7:41
MERGED from [com.facebook.fresco:drawee:1.10.0] /Users/rullylukman/.gradle/caches/transforms-1/files-1.1/drawee-1.10.0.aar/ae660fc23ace4b10c6930b77764d02b4/AndroidManifest.xml:5:5-7:41
MERGED from [com.facebook.fresco:drawee:1.10.0] /Users/rullylukman/.gradle/caches/transforms-1/files-1.1/drawee-1.10.0.aar/ae660fc23ace4b10c6930b77764d02b4/AndroidManifest.xml:5:5-7:41
MERGED from [com.facebook.fresco:imagepipeline:1.10.0] /Users/rullylukman/.gradle/caches/transforms-1/files-1.1/imagepipeline-1.10.0.aar/30a8416a6200d4adf4f04a9ff8705d28/AndroidManifest.xml:5:5-7:41
MERGED from [com.facebook.fresco:imagepipeline:1.10.0] /Users/rullylukman/.gradle/caches/transforms-1/files-1.1/imagepipeline-1.10.0.aar/30a8416a6200d4adf4f04a9ff8705d28/AndroidManifest.xml:5:5-7:41
MERGED from [com.facebook.fresco:imagepipeline-base:1.10.0] /Users/rullylukman/.gradle/caches/transforms-1/files-1.1/imagepipeline-base-1.10.0.aar/ab0f60ec7eca9b4bf051acea1823ac55/AndroidManifest.xml:5:5-7:41
MERGED from [com.facebook.fresco:imagepipeline-base:1.10.0] /Users/rullylukman/.gradle/caches/transforms-1/files-1.1/imagepipeline-base-1.10.0.aar/ab0f60ec7eca9b4bf051acea1823ac55/AndroidManifest.xml:5:5-7:41
MERGED from [com.facebook.soloader:soloader:0.6.0] /Users/rullylukman/.gradle/caches/transforms-1/files-1.1/soloader-0.6.0.aar/a401eead49af514ebfec385604d01d00/AndroidManifest.xml:7:5-9:41
MERGED from [com.facebook.soloader:soloader:0.6.0] /Users/rullylukman/.gradle/caches/transforms-1/files-1.1/soloader-0.6.0.aar/a401eead49af514ebfec385604d01d00/AndroidManifest.xml:7:5-9:41
MERGED from [com.facebook.fresco:fbcore:1.10.0] /Users/rullylukman/.gradle/caches/transforms-1/files-1.1/fbcore-1.10.0.aar/76d6794dcf1fb34d4a7c4cd2484bdfc5/AndroidManifest.xml:5:5-7:41
MERGED from [com.facebook.fresco:fbcore:1.10.0] /Users/rullylukman/.gradle/caches/transforms-1/files-1.1/fbcore-1.10.0.aar/76d6794dcf1fb34d4a7c4cd2484bdfc5/AndroidManifest.xml:5:5-7:41
INJECTED from /Users/rullylukman/react-native/firebasenotif1/android/app/src/debug/AndroidManifest.xml
INJECTED from /Users/rullylukman/react-native/firebasenotif1/android/app/src/debug/AndroidManifest.xml
	android:targetSdkVersion
		INJECTED from /Users/rullylukman/react-native/firebasenotif1/android/app/src/main/AndroidManifest.xml
		INJECTED from /Users/rullylukman/react-native/firebasenotif1/android/app/src/debug/AndroidManifest.xml
	android:minSdkVersion
		INJECTED from /Users/rullylukman/react-native/firebasenotif1/android/app/src/main/AndroidManifest.xml
		INJECTED from /Users/rullylukman/react-native/firebasenotif1/android/app/src/debug/AndroidManifest.xml
uses-permission#android.permission.SYSTEM_ALERT_WINDOW
ADDED from /Users/rullylukman/react-native/firebasenotif1/android/app/src/debug/AndroidManifest.xml:5:5-77
	android:name
		ADDED from /Users/rullylukman/react-native/firebasenotif1/android/app/src/debug/AndroidManifest.xml:5:22-75
uses-permission#android.permission.WAKE_LOCK
ADDED from [:react-native-firebase] /Users/rullylukman/react-native/firebasenotif1/node_modules/react-native-firebase/android/build/intermediates/library_manifest/debug/AndroidManifest.xml:12:5-68
MERGED from [com.google.android.gms:play-services-measurement-api:16.4.0] /Users/rullylukman/.gradle/caches/transforms-1/files-1.1/play-services-measurement-api-16.4.0.aar/a8fbbbdd8033bb0277042705133b245e/AndroidManifest.xml:24:5-68
MERGED from [com.google.android.gms:play-services-measurement-api:16.4.0] /Users/rullylukman/.gradle/caches/transforms-1/files-1.1/play-services-measurement-api-16.4.0.aar/a8fbbbdd8033bb0277042705133b245e/AndroidManifest.xml:24:5-68
MERGED from [com.google.firebase:firebase-iid:17.1.1] /Users/rullylukman/.gradle/caches/transforms-1/files-1.1/firebase-iid-17.1.1.aar/fd357df0b54ab6590b79886a1e225b11/AndroidManifest.xml:24:5-68
MERGED from [com.google.firebase:firebase-iid:17.1.1] /Users/rullylukman/.gradle/caches/transforms-1/files-1.1/firebase-iid-17.1.1.aar/fd357df0b54ab6590b79886a1e225b11/AndroidManifest.xml:24:5-68
MERGED from [com.google.android.gms:play-services-measurement:16.4.0] /Users/rullylukman/.gradle/caches/transforms-1/files-1.1/play-services-measurement-16.4.0.aar/987426cc656aed1c31a7c24dbf845795/AndroidManifest.xml:25:5-68
MERGED from [com.google.android.gms:play-services-measurement:16.4.0] /Users/rullylukman/.gradle/caches/transforms-1/files-1.1/play-services-measurement-16.4.0.aar/987426cc656aed1c31a7c24dbf845795/AndroidManifest.xml:25:5-68
MERGED from [com.google.android.gms:play-services-measurement-impl:16.4.0] /Users/rullylukman/.gradle/caches/transforms-1/files-1.1/play-services-measurement-impl-16.4.0.aar/6a8697d9dfb948cde5c2c89c0a8cb591/AndroidManifest.xml:25:5-68
MERGED from [com.google.android.gms:play-services-measurement-impl:16.4.0] /Users/rullylukman/.gradle/caches/transforms-1/files-1.1/play-services-measurement-impl-16.4.0.aar/6a8697d9dfb948cde5c2c89c0a8cb591/AndroidManifest.xml:25:5-68
MERGED from [com.google.android.gms:play-services-measurement-sdk-api:16.4.0] /Users/rullylukman/.gradle/caches/transforms-1/files-1.1/play-services-measurement-sdk-api-16.4.0.aar/3ce0e49edecf0be61e6506d820bc3eff/AndroidManifest.xml:25:5-68
MERGED from [com.google.android.gms:play-services-measurement-sdk-api:16.4.0] /Users/rullylukman/.gradle/caches/transforms-1/files-1.1/play-services-measurement-sdk-api-16.4.0.aar/3ce0e49edecf0be61e6506d820bc3eff/AndroidManifest.xml:25:5-68
	android:name
		ADDED from [:react-native-firebase] /Users/rullylukman/react-native/firebasenotif1/node_modules/react-native-firebase/android/build/intermediates/library_manifest/debug/AndroidManifest.xml:12:22-65
uses-permission#android.permission.ACCESS_NETWORK_STATE
ADDED from [:react-native-firebase] /Users/rullylukman/react-native/firebasenotif1/node_modules/react-native-firebase/android/build/intermediates/library_manifest/debug/AndroidManifest.xml:13:5-79
MERGED from [com.google.android.gms:play-services-measurement-api:16.4.0] /Users/rullylukman/.gradle/caches/transforms-1/files-1.1/play-services-measurement-api-16.4.0.aar/a8fbbbdd8033bb0277042705133b245e/AndroidManifest.xml:23:5-79
MERGED from [com.google.android.gms:play-services-measurement-api:16.4.0] /Users/rullylukman/.gradle/caches/transforms-1/files-1.1/play-services-measurement-api-16.4.0.aar/a8fbbbdd8033bb0277042705133b245e/AndroidManifest.xml:23:5-79
MERGED from [com.google.firebase:firebase-iid:17.1.1] /Users/rullylukman/.gradle/caches/transforms-1/files-1.1/firebase-iid-17.1.1.aar/fd357df0b54ab6590b79886a1e225b11/AndroidManifest.xml:22:5-79
MERGED from [com.google.firebase:firebase-iid:17.1.1] /Users/rullylukman/.gradle/caches/transforms-1/files-1.1/firebase-iid-17.1.1.aar/fd357df0b54ab6590b79886a1e225b11/AndroidManifest.xml:22:5-79
MERGED from [com.google.android.gms:play-services-measurement:16.4.0] /Users/rullylukman/.gradle/caches/transforms-1/files-1.1/play-services-measurement-16.4.0.aar/987426cc656aed1c31a7c24dbf845795/AndroidManifest.xml:24:5-79
MERGED from [com.google.android.gms:play-services-measurement:16.4.0] /Users/rullylukman/.gradle/caches/transforms-1/files-1.1/play-services-measurement-16.4.0.aar/987426cc656aed1c31a7c24dbf845795/AndroidManifest.xml:24:5-79
MERGED from [com.google.android.gms:play-services-measurement-impl:16.4.0] /Users/rullylukman/.gradle/caches/transforms-1/files-1.1/play-services-measurement-impl-16.4.0.aar/6a8697d9dfb948cde5c2c89c0a8cb591/AndroidManifest.xml:24:5-79
MERGED from [com.google.android.gms:play-services-measurement-impl:16.4.0] /Users/rullylukman/.gradle/caches/transforms-1/files-1.1/play-services-measurement-impl-16.4.0.aar/6a8697d9dfb948cde5c2c89c0a8cb591/AndroidManifest.xml:24:5-79
MERGED from [com.google.android.gms:play-services-measurement-sdk-api:16.4.0] /Users/rullylukman/.gradle/caches/transforms-1/files-1.1/play-services-measurement-sdk-api-16.4.0.aar/3ce0e49edecf0be61e6506d820bc3eff/AndroidManifest.xml:24:5-79
MERGED from [com.google.android.gms:play-services-measurement-sdk-api:16.4.0] /Users/rullylukman/.gradle/caches/transforms-1/files-1.1/play-services-measurement-sdk-api-16.4.0.aar/3ce0e49edecf0be61e6506d820bc3eff/AndroidManifest.xml:24:5-79
	android:name
		ADDED from [:react-native-firebase] /Users/rullylukman/react-native/firebasenotif1/node_modules/react-native-firebase/android/build/intermediates/library_manifest/debug/AndroidManifest.xml:13:22-76
service#com.google.firebase.components.ComponentDiscoveryService
ADDED from [:react-native-firebase] /Users/rullylukman/react-native/firebasenotif1/node_modules/react-native-firebase/android/build/intermediates/library_manifest/debug/AndroidManifest.xml:16:9-20:19
MERGED from [com.google.android.gms:play-services-measurement-api:16.4.0] /Users/rullylukman/.gradle/caches/transforms-1/files-1.1/play-services-measurement-api-16.4.0.aar/a8fbbbdd8033bb0277042705133b245e/AndroidManifest.xml:27:9-33:19
MERGED from [com.google.android.gms:play-services-measurement-api:16.4.0] /Users/rullylukman/.gradle/caches/transforms-1/files-1.1/play-services-measurement-api-16.4.0.aar/a8fbbbdd8033bb0277042705133b245e/AndroidManifest.xml:27:9-33:19
MERGED from [com.google.firebase:firebase-iid:17.1.1] /Users/rullylukman/.gradle/caches/transforms-1/files-1.1/firebase-iid-17.1.1.aar/fd357df0b54ab6590b79886a1e225b11/AndroidManifest.xml:29:9-35:19
MERGED from [com.google.firebase:firebase-iid:17.1.1] /Users/rullylukman/.gradle/caches/transforms-1/files-1.1/firebase-iid-17.1.1.aar/fd357df0b54ab6590b79886a1e225b11/AndroidManifest.xml:29:9-35:19
	android:exported
		ADDED from [com.google.android.gms:play-services-measurement-api:16.4.0] /Users/rullylukman/.gradle/caches/transforms-1/files-1.1/play-services-measurement-api-16.4.0.aar/a8fbbbdd8033bb0277042705133b245e/AndroidManifest.xml:29:13-37
	android:name
		ADDED from [:react-native-firebase] /Users/rullylukman/react-native/firebasenotif1/node_modules/react-native-firebase/android/build/intermediates/library_manifest/debug/AndroidManifest.xml:16:18-89
meta-data#com.google.firebase.components:io.invertase.firebase.ReactNativeFirebaseAppRegistrar
ADDED from [:react-native-firebase] /Users/rullylukman/react-native/firebasenotif1/node_modules/react-native-firebase/android/build/intermediates/library_manifest/debug/AndroidManifest.xml:17:13-19:85
	android:value
		ADDED from [:react-native-firebase] /Users/rullylukman/react-native/firebasenotif1/node_modules/react-native-firebase/android/build/intermediates/library_manifest/debug/AndroidManifest.xml:19:17-82
	android:name
		ADDED from [:react-native-firebase] /Users/rullylukman/react-native/firebasenotif1/node_modules/react-native-firebase/android/build/intermediates/library_manifest/debug/AndroidManifest.xml:18:17-116
service#com.google.firebase.messaging.FirebaseMessagingService
ADDED from [com.google.firebase:firebase-messaging:17.5.0] /Users/rullylukman/.gradle/caches/transforms-1/files-1.1/firebase-messaging-17.5.0.aar/c2d62b0c4a05663b4325c03b82e6dfb1/AndroidManifest.xml:28:9-34:19
	android:exported
		ADDED from [com.google.firebase:firebase-messaging:17.5.0] /Users/rullylukman/.gradle/caches/transforms-1/files-1.1/firebase-messaging-17.5.0.aar/c2d62b0c4a05663b4325c03b82e6dfb1/AndroidManifest.xml:30:13-36
	android:name
		ADDED from [com.google.firebase:firebase-messaging:17.5.0] /Users/rullylukman/.gradle/caches/transforms-1/files-1.1/firebase-messaging-17.5.0.aar/c2d62b0c4a05663b4325c03b82e6dfb1/AndroidManifest.xml:29:13-82
meta-data#com.google.firebase.components:com.google.firebase.analytics.connector.internal.AnalyticsConnectorRegistrar
ADDED from [com.google.android.gms:play-services-measurement-api:16.4.0] /Users/rullylukman/.gradle/caches/transforms-1/files-1.1/play-services-measurement-api-16.4.0.aar/a8fbbbdd8033bb0277042705133b245e/AndroidManifest.xml:30:13-32:85
	android:value
		ADDED from [com.google.android.gms:play-services-measurement-api:16.4.0] /Users/rullylukman/.gradle/caches/transforms-1/files-1.1/play-services-measurement-api-16.4.0.aar/a8fbbbdd8033bb0277042705133b245e/AndroidManifest.xml:32:17-82
	android:name
		ADDED from [com.google.android.gms:play-services-measurement-api:16.4.0] /Users/rullylukman/.gradle/caches/transforms-1/files-1.1/play-services-measurement-api-16.4.0.aar/a8fbbbdd8033bb0277042705133b245e/AndroidManifest.xml:31:17-139
uses-permission#com.google.android.c2dm.permission.RECEIVE
ADDED from [com.google.firebase:firebase-iid:17.1.1] /Users/rullylukman/.gradle/caches/transforms-1/files-1.1/firebase-iid-17.1.1.aar/fd357df0b54ab6590b79886a1e225b11/AndroidManifest.xml:26:5-82
	android:name
		ADDED from [com.google.firebase:firebase-iid:17.1.1] /Users/rullylukman/.gradle/caches/transforms-1/files-1.1/firebase-iid-17.1.1.aar/fd357df0b54ab6590b79886a1e225b11/AndroidManifest.xml:26:22-79
meta-data#com.google.firebase.components:com.google.firebase.iid.Registrar
ADDED from [com.google.firebase:firebase-iid:17.1.1] /Users/rullylukman/.gradle/caches/transforms-1/files-1.1/firebase-iid-17.1.1.aar/fd357df0b54ab6590b79886a1e225b11/AndroidManifest.xml:32:13-34:85
	android:value
		ADDED from [com.google.firebase:firebase-iid:17.1.1] /Users/rullylukman/.gradle/caches/transforms-1/files-1.1/firebase-iid-17.1.1.aar/fd357df0b54ab6590b79886a1e225b11/AndroidManifest.xml:34:17-82
	android:name
		ADDED from [com.google.firebase:firebase-iid:17.1.1] /Users/rullylukman/.gradle/caches/transforms-1/files-1.1/firebase-iid-17.1.1.aar/fd357df0b54ab6590b79886a1e225b11/AndroidManifest.xml:33:17-96
receiver#com.google.firebase.iid.FirebaseInstanceIdReceiver
ADDED from [com.google.firebase:firebase-iid:17.1.1] /Users/rullylukman/.gradle/caches/transforms-1/files-1.1/firebase-iid-17.1.1.aar/fd357df0b54ab6590b79886a1e225b11/AndroidManifest.xml:37:9-44:20
	android:exported
		ADDED from [com.google.firebase:firebase-iid:17.1.1] /Users/rullylukman/.gradle/caches/transforms-1/files-1.1/firebase-iid-17.1.1.aar/fd357df0b54ab6590b79886a1e225b11/AndroidManifest.xml:39:13-36
	android:permission
		ADDED from [com.google.firebase:firebase-iid:17.1.1] /Users/rullylukman/.gradle/caches/transforms-1/files-1.1/firebase-iid-17.1.1.aar/fd357df0b54ab6590b79886a1e225b11/AndroidManifest.xml:40:13-73
	android:name
		ADDED from [com.google.firebase:firebase-iid:17.1.1] /Users/rullylukman/.gradle/caches/transforms-1/files-1.1/firebase-iid-17.1.1.aar/fd357df0b54ab6590b79886a1e225b11/AndroidManifest.xml:38:13-78
intent-filter#action:name:com.google.android.c2dm.intent.RECEIVE
ADDED from [com.google.firebase:firebase-iid:17.1.1] /Users/rullylukman/.gradle/caches/transforms-1/files-1.1/firebase-iid-17.1.1.aar/fd357df0b54ab6590b79886a1e225b11/AndroidManifest.xml:41:13-43:29
action#com.google.android.c2dm.intent.RECEIVE
ADDED from [com.google.firebase:firebase-iid:17.1.1] /Users/rullylukman/.gradle/caches/transforms-1/files-1.1/firebase-iid-17.1.1.aar/fd357df0b54ab6590b79886a1e225b11/AndroidManifest.xml:42:17-81
	android:name
		ADDED from [com.google.firebase:firebase-iid:17.1.1] /Users/rullylukman/.gradle/caches/transforms-1/files-1.1/firebase-iid-17.1.1.aar/fd357df0b54ab6590b79886a1e225b11/AndroidManifest.xml:42:25-78
service#com.google.firebase.iid.FirebaseInstanceIdService
ADDED from [com.google.firebase:firebase-iid:17.1.1] /Users/rullylukman/.gradle/caches/transforms-1/files-1.1/firebase-iid-17.1.1.aar/fd357df0b54ab6590b79886a1e225b11/AndroidManifest.xml:50:9-56:19
	android:exported
		ADDED from [com.google.firebase:firebase-iid:17.1.1] /Users/rullylukman/.gradle/caches/transforms-1/files-1.1/firebase-iid-17.1.1.aar/fd357df0b54ab6590b79886a1e225b11/AndroidManifest.xml:52:13-36
	android:name
		ADDED from [com.google.firebase:firebase-iid:17.1.1] /Users/rullylukman/.gradle/caches/transforms-1/files-1.1/firebase-iid-17.1.1.aar/fd357df0b54ab6590b79886a1e225b11/AndroidManifest.xml:51:13-77
intent-filter#action:name:com.google.firebase.INSTANCE_ID_EVENT
ADDED from [com.google.firebase:firebase-iid:17.1.1] /Users/rullylukman/.gradle/caches/transforms-1/files-1.1/firebase-iid-17.1.1.aar/fd357df0b54ab6590b79886a1e225b11/AndroidManifest.xml:53:13-55:29
	android:priority
		ADDED from [com.google.firebase:firebase-iid:17.1.1] /Users/rullylukman/.gradle/caches/transforms-1/files-1.1/firebase-iid-17.1.1.aar/fd357df0b54ab6590b79886a1e225b11/AndroidManifest.xml:53:28-51
action#com.google.firebase.INSTANCE_ID_EVENT
ADDED from [com.google.firebase:firebase-iid:17.1.1] /Users/rullylukman/.gradle/caches/transforms-1/files-1.1/firebase-iid-17.1.1.aar/fd357df0b54ab6590b79886a1e225b11/AndroidManifest.xml:54:17-80
	android:name
		ADDED from [com.google.firebase:firebase-iid:17.1.1] /Users/rullylukman/.gradle/caches/transforms-1/files-1.1/firebase-iid-17.1.1.aar/fd357df0b54ab6590b79886a1e225b11/AndroidManifest.xml:54:25-77
activity#com.google.android.gms.common.api.GoogleApiActivity
ADDED from [com.google.android.gms:play-services-base:16.1.0] /Users/rullylukman/.gradle/caches/transforms-1/files-1.1/play-services-base-16.1.0.aar/60ed1822ebb867f4d078fe99163877dd/AndroidManifest.xml:23:9-26:75
	android:exported
		ADDED from [com.google.android.gms:play-services-base:16.1.0] /Users/rullylukman/.gradle/caches/transforms-1/files-1.1/play-services-base-16.1.0.aar/60ed1822ebb867f4d078fe99163877dd/AndroidManifest.xml:25:13-37
	android:theme
		ADDED from [com.google.android.gms:play-services-base:16.1.0] /Users/rullylukman/.gradle/caches/transforms-1/files-1.1/play-services-base-16.1.0.aar/60ed1822ebb867f4d078fe99163877dd/AndroidManifest.xml:26:13-72
	android:name
		ADDED from [com.google.android.gms:play-services-base:16.1.0] /Users/rullylukman/.gradle/caches/transforms-1/files-1.1/play-services-base-16.1.0.aar/60ed1822ebb867f4d078fe99163877dd/AndroidManifest.xml:24:13-79
provider#com.google.firebase.provider.FirebaseInitProvider
ADDED from [com.google.firebase:firebase-common:16.1.0] /Users/rullylukman/.gradle/caches/transforms-1/files-1.1/firebase-common-16.1.0.aar/ce99a6f01f7898065696782643932d25/AndroidManifest.xml:12:9-16:39
	android:authorities
		ADDED from [com.google.firebase:firebase-common:16.1.0] /Users/rullylukman/.gradle/caches/transforms-1/files-1.1/firebase-common-16.1.0.aar/ce99a6f01f7898065696782643932d25/AndroidManifest.xml:14:13-72
	android:exported
		ADDED from [com.google.firebase:firebase-common:16.1.0] /Users/rullylukman/.gradle/caches/transforms-1/files-1.1/firebase-common-16.1.0.aar/ce99a6f01f7898065696782643932d25/AndroidManifest.xml:15:13-37
	android:initOrder
		ADDED from [com.google.firebase:firebase-common:16.1.0] /Users/rullylukman/.gradle/caches/transforms-1/files-1.1/firebase-common-16.1.0.aar/ce99a6f01f7898065696782643932d25/AndroidManifest.xml:16:13-36
	android:name
		ADDED from [com.google.firebase:firebase-common:16.1.0] /Users/rullylukman/.gradle/caches/transforms-1/files-1.1/firebase-common-16.1.0.aar/ce99a6f01f7898065696782643932d25/AndroidManifest.xml:13:13-77
uses-permission#com.google.android.finsky.permission.BIND_GET_INSTALL_REFERRER_SERVICE
ADDED from [com.google.android.gms:play-services-measurement:16.4.0] /Users/rullylukman/.gradle/caches/transforms-1/files-1.1/play-services-measurement-16.4.0.aar/987426cc656aed1c31a7c24dbf845795/AndroidManifest.xml:26:5-110
MERGED from [com.google.android.gms:play-services-measurement-impl:16.4.0] /Users/rullylukman/.gradle/caches/transforms-1/files-1.1/play-services-measurement-impl-16.4.0.aar/6a8697d9dfb948cde5c2c89c0a8cb591/AndroidManifest.xml:26:5-110
MERGED from [com.google.android.gms:play-services-measurement-impl:16.4.0] /Users/rullylukman/.gradle/caches/transforms-1/files-1.1/play-services-measurement-impl-16.4.0.aar/6a8697d9dfb948cde5c2c89c0a8cb591/AndroidManifest.xml:26:5-110
	android:name
		ADDED from [com.google.android.gms:play-services-measurement:16.4.0] /Users/rullylukman/.gradle/caches/transforms-1/files-1.1/play-services-measurement-16.4.0.aar/987426cc656aed1c31a7c24dbf845795/AndroidManifest.xml:26:22-107
receiver#com.google.android.gms.measurement.AppMeasurementReceiver
ADDED from [com.google.android.gms:play-services-measurement:16.4.0] /Users/rullylukman/.gradle/caches/transforms-1/files-1.1/play-services-measurement-16.4.0.aar/987426cc656aed1c31a7c24dbf845795/AndroidManifest.xml:29:9-33:20
	android:enabled
		ADDED from [com.google.android.gms:play-services-measurement:16.4.0] /Users/rullylukman/.gradle/caches/transforms-1/files-1.1/play-services-measurement-16.4.0.aar/987426cc656aed1c31a7c24dbf845795/AndroidManifest.xml:31:13-35
	android:exported
		ADDED from [com.google.android.gms:play-services-measurement:16.4.0] /Users/rullylukman/.gradle/caches/transforms-1/files-1.1/play-services-measurement-16.4.0.aar/987426cc656aed1c31a7c24dbf845795/AndroidManifest.xml:32:13-37
	android:name
		ADDED from [com.google.android.gms:play-services-measurement:16.4.0] /Users/rullylukman/.gradle/caches/transforms-1/files-1.1/play-services-measurement-16.4.0.aar/987426cc656aed1c31a7c24dbf845795/AndroidManifest.xml:30:13-85
receiver#com.google.android.gms.measurement.AppMeasurementInstallReferrerReceiver
ADDED from [com.google.android.gms:play-services-measurement:16.4.0] /Users/rullylukman/.gradle/caches/transforms-1/files-1.1/play-services-measurement-16.4.0.aar/987426cc656aed1c31a7c24dbf845795/AndroidManifest.xml:34:9-42:20
MERGED from [com.google.android.gms:play-services-measurement-impl:16.4.0] /Users/rullylukman/.gradle/caches/transforms-1/files-1.1/play-services-measurement-impl-16.4.0.aar/6a8697d9dfb948cde5c2c89c0a8cb591/AndroidManifest.xml:29:9-37:20
MERGED from [com.google.android.gms:play-services-measurement-impl:16.4.0] /Users/rullylukman/.gradle/caches/transforms-1/files-1.1/play-services-measurement-impl-16.4.0.aar/6a8697d9dfb948cde5c2c89c0a8cb591/AndroidManifest.xml:29:9-37:20
	android:enabled
		ADDED from [com.google.android.gms:play-services-measurement:16.4.0] /Users/rullylukman/.gradle/caches/transforms-1/files-1.1/play-services-measurement-16.4.0.aar/987426cc656aed1c31a7c24dbf845795/AndroidManifest.xml:36:13-35
	android:exported
		ADDED from [com.google.android.gms:play-services-measurement:16.4.0] /Users/rullylukman/.gradle/caches/transforms-1/files-1.1/play-services-measurement-16.4.0.aar/987426cc656aed1c31a7c24dbf845795/AndroidManifest.xml:37:13-36
	android:permission
		ADDED from [com.google.android.gms:play-services-measurement:16.4.0] /Users/rullylukman/.gradle/caches/transforms-1/files-1.1/play-services-measurement-16.4.0.aar/987426cc656aed1c31a7c24dbf845795/AndroidManifest.xml:38:13-69
	android:name
		ADDED from [com.google.android.gms:play-services-measurement:16.4.0] /Users/rullylukman/.gradle/caches/transforms-1/files-1.1/play-services-measurement-16.4.0.aar/987426cc656aed1c31a7c24dbf845795/AndroidManifest.xml:35:13-100
intent-filter#action:name:com.android.vending.INSTALL_REFERRER
ADDED from [com.google.android.gms:play-services-measurement:16.4.0] /Users/rullylukman/.gradle/caches/transforms-1/files-1.1/play-services-measurement-16.4.0.aar/987426cc656aed1c31a7c24dbf845795/AndroidManifest.xml:39:13-41:29
action#com.android.vending.INSTALL_REFERRER
ADDED from [com.google.android.gms:play-services-measurement:16.4.0] /Users/rullylukman/.gradle/caches/transforms-1/files-1.1/play-services-measurement-16.4.0.aar/987426cc656aed1c31a7c24dbf845795/AndroidManifest.xml:40:17-79
	android:name
		ADDED from [com.google.android.gms:play-services-measurement:16.4.0] /Users/rullylukman/.gradle/caches/transforms-1/files-1.1/play-services-measurement-16.4.0.aar/987426cc656aed1c31a7c24dbf845795/AndroidManifest.xml:40:25-76
service#com.google.android.gms.measurement.AppMeasurementService
ADDED from [com.google.android.gms:play-services-measurement:16.4.0] /Users/rullylukman/.gradle/caches/transforms-1/files-1.1/play-services-measurement-16.4.0.aar/987426cc656aed1c31a7c24dbf845795/AndroidManifest.xml:44:9-47:40
	android:enabled
		ADDED from [com.google.android.gms:play-services-measurement:16.4.0] /Users/rullylukman/.gradle/caches/transforms-1/files-1.1/play-services-measurement-16.4.0.aar/987426cc656aed1c31a7c24dbf845795/AndroidManifest.xml:46:13-35
	android:exported
		ADDED from [com.google.android.gms:play-services-measurement:16.4.0] /Users/rullylukman/.gradle/caches/transforms-1/files-1.1/play-services-measurement-16.4.0.aar/987426cc656aed1c31a7c24dbf845795/AndroidManifest.xml:47:13-37
	android:name
		ADDED from [com.google.android.gms:play-services-measurement:16.4.0] /Users/rullylukman/.gradle/caches/transforms-1/files-1.1/play-services-measurement-16.4.0.aar/987426cc656aed1c31a7c24dbf845795/AndroidManifest.xml:45:13-84
service#com.google.android.gms.measurement.AppMeasurementJobService
ADDED from [com.google.android.gms:play-services-measurement:16.4.0] /Users/rullylukman/.gradle/caches/transforms-1/files-1.1/play-services-measurement-16.4.0.aar/987426cc656aed1c31a7c24dbf845795/AndroidManifest.xml:48:9-52:72
	android:enabled
		ADDED from [com.google.android.gms:play-services-measurement:16.4.0] /Users/rullylukman/.gradle/caches/transforms-1/files-1.1/play-services-measurement-16.4.0.aar/987426cc656aed1c31a7c24dbf845795/AndroidManifest.xml:50:13-35
	android:exported
		ADDED from [com.google.android.gms:play-services-measurement:16.4.0] /Users/rullylukman/.gradle/caches/transforms-1/files-1.1/play-services-measurement-16.4.0.aar/987426cc656aed1c31a7c24dbf845795/AndroidManifest.xml:51:13-37
	android:permission
		ADDED from [com.google.android.gms:play-services-measurement:16.4.0] /Users/rullylukman/.gradle/caches/transforms-1/files-1.1/play-services-measurement-16.4.0.aar/987426cc656aed1c31a7c24dbf845795/AndroidManifest.xml:52:13-69
	android:name
		ADDED from [com.google.android.gms:play-services-measurement:16.4.0] /Users/rullylukman/.gradle/caches/transforms-1/files-1.1/play-services-measurement-16.4.0.aar/987426cc656aed1c31a7c24dbf845795/AndroidManifest.xml:49:13-87
meta-data#com.google.android.gms.version
ADDED from [com.google.android.gms:play-services-basement:16.2.0] /Users/rullylukman/.gradle/caches/transforms-1/files-1.1/play-services-basement-16.2.0.aar/7eef0fc78f797144dfbc1b4ef40ba6b8/AndroidManifest.xml:23:9-25:69
	android:value
		ADDED from [com.google.android.gms:play-services-basement:16.2.0] /Users/rullylukman/.gradle/caches/transforms-1/files-1.1/play-services-basement-16.2.0.aar/7eef0fc78f797144dfbc1b4ef40ba6b8/AndroidManifest.xml:25:13-66
	android:name
		ADDED from [com.google.android.gms:play-services-basement:16.2.0] /Users/rullylukman/.gradle/caches/transforms-1/files-1.1/play-services-basement-16.2.0.aar/7eef0fc78f797144dfbc1b4ef40ba6b8/AndroidManifest.xml:24:13-58
